98172
54770
1927
61801
79275
96655
4682
5352
96513
22582
24319
29280
600
16814
98451
63468
6631
17632
6990
21321
46753
2577
7299
59577
22950
55130
92830
73732
35589
8861
76751
37493
2336
36233
30446
33407
59849
52041
11747
1700
21458
55352
8070
56689
73155
77680
41702
10422
64486
33750
43575
7626
43588
76625
9184
45834
67274
28210
65420
89980
96075
72804
63539
84351
88321
91388
60719
63842
70950
17950
38438
92880
14350
40932
84364
51762
95548
95992
36180
44312
85725
53059
52069
28893
600
51671
70254
53078
18992
55693
86429
36716
10105
5831
10572
51022
6270
73773
27657
60054
57074
99494
92624
76529
30796
54759
505
24524
77820
36920
90359
88516
87768
14182
25487
53691
54535
60090
88214
69248
21602
56114
27967
46830
79871
66770
68347
60426
61524
26080
69030
55067
28648
41106
49196
18922
15494
74824
35409
59048
96061
70722
30832
28146
1019
82318
99634
8770
95667
50363
57737
53969
6222
59263
96160
68433
31113
44793
69275
12957
83595
81367
40572
19986
93458
33482
30332
31970
21191
33434
26765
87074
39340
60346
85414
99222
985
24442
98978
9111
65658
85250
85631
88525
42962
45970
81098
67203
81637
72311
21487
87807
13757
3467
29534
62573
85146
33169
30948
17563
45947
44724
93896
53236
76325
99526
75830
56630
76451
47677
9804
34519
46322
33139
22713
40087
67287
9448
44327
88954
43909
68278
83350
91951
68373
32047
91629
26815
66928
39857
24373
83184
84235
60341
77939
84228
65489
70854
27727
59427
79040
79616
37959
83582
54188
7962
30772
49982
57028
6895
70168
17178
92776
25384
43261
89083
84878
8021
33174
2632
64749
6270
23570
23781
39393
25797
32011
48286
43334
14894
90985
99157
28164
12542
33035
96143
89484
8277
12547
62384
56774
27286
62503
39528
4271
90298
14811
14068
80641
58522
82561
14878
19173
71018
70234
29209
8611
59876
22051
17861
52469
98803
10951
32865
85684
82103
30153
16021
43602
16878
49791
96585
21346
27602
24105
89873
39065
84332
7883
81702
36450
91300
42640
36947
11212
60787
55174
41815
10923
27106
61245
27124
35810
38446
64204
55911
70321
95245
70769
78209
55329
45771
95371
37213
10601
35822
78570
63799
95284
72052
49604
97187
88885
29534
77262
42775
59314
42235
64186
96750
29154
38551
29747
78059
44118
84283
55323
48926
78022
40766
45731
50462
2150
52646
37136
13044
16400
38778
7515
46991
66479
94270
72169
49219
89232
17769
83198
69012
74393
17999
8452
44306
50408
87286
99633
26923
8927
55676
70716
49239
8602
44629
56319
20337
60525
58451
40520
24351
15930
92932
84818
78456
34487
64748
97833
4449
17919
47066
25124
84896
52739
73977
92760
31844
51335
50041
35911
15681
28522
56701
11192
33452
52279
8623
32112
4885
36563
40532
88431
17140
21364
42123
54803
55474
24003
14523
55444
45918
52909
93138
16618
43200
69481
25146
53070
22686
49515
3864
53620
1352
99185
43362
41740
66786
507
37296
67430
19772
33941
9130
36716
21161
64602
91457
85067
50061
58492
18621
66055
14570
6649
10736
71521
85929
88182
52270
83222
2378
56266
62070
81344
79198
31096
28355
54401
90018
29460
36319
9908
54648
83419
83759
24444
36566
90571
18756
90822
38065
64602
22318
95688
25779
93705
23446
40749
13871
88466
84350
49571
53228
73564
49611
44024
72568
84737
26274
8871
91734
77629
38326
3658
21815
87233
26229
5262
76504
96387
19767
67236
20893
78577
36808
77357
90973
51987
99843
44145
21706
30927
4936
14104
77065
57704
46467
67165
31783
5010
46921
391
64452
10345
71350
92136
65005
39614
82239
90678
2515
26380
90490
68853
4858
81527
39422
6501
76013
98298
1456
77269
70168
85633
6755
87356
47239
40169
2934
68503
80960
87412
27460
72155
38035
63508
60834
99691
65552
73377
14474
8317
9469
65384
35424
3711
71122
2575
84488
98962
31073
10843
40369
87295
30158
61684
44333
60008
62901
69297
34944
39063
62072
68347
81147
63210
47307
11923
76042
94223
10757
13600
40505
42058
81983
39362
73672
38834
37327
98302
80967
60076
19909
55340
24946
67939
63039
60339
84463
79719
98994
32334
33675
90837
56223
24970
33454
45257
83803
48492
13866
94369
35133
7496
61648
58427
58325
57980
74390
46873
27830
33660
41415
29017
97463
47648
31819
38107
21042
94792
32141
63313
69662
19562
69910
28843
29998
4768
18909
10912
73960
55193
75626
87458
82592
92561
28645
49549
61119
41811
93996
84396
6086
86154
10171
25242
17933
87364
2002
48844
10271
7072
86982
62512
86527
28363
21670
49776
18856
5010
8386
15354
10140
57716
88818
67120
4078
40830
26471
91573
82323
85322
91024
28370
49068
81456
89077
35465
96515
42348
29223
12186
34263
13643
74350
94967
39576
81741
63083
55116
29908
99880
22874
87000
79451
4910
10333
3367
99190
80592
9127
97175
25183
92497
26488
35701
45527
73498
91421
10055
98209
94587
46307
19758
16221
98085
70800
71569
18905
35331
95474
5917
45361
9113
66210
8924
88318
3256
19735
37094
10179
22273
17133
25023
55931
53109
88620
81563
30679
70850
34167
62697
81868
61324
80395
11216
9219
23561
91035
68033
32540
90087
27280
45916
66941
38806
28976
56643
78483
87962
27783
84508
344
35560
94432
17701
29860
24613
17260
59511
33339
73049
35255
33095
45387
71770
69999
18248
62957
51194
54374
96239
38485
89035
66529
79615
31763
60741
69832
33676
57762
32079
14818
19674
69333
22790
51396
95654
94556
99123
17883
49874
83679
82378
10998
21979
43409
77661
51039
84220
60587
82477
47984
67186
54715
33056
93841
45184
13191
46934
79262
9158
71174
32626
66419
51813
11626
59498
17998
78538
42174
97435
91439
79215
47455
80692
85294
91569
89137
57895
50616
95064
58042
37556
38831
32967
15068
40691
55123
95498
11960
6967
45584
53306
42137
12935
37342
43256
45645
34383
16329
23318
99364
34172
57452
24816
42497
22109
88431
65954
67921
88251
4884
91560
7271
42955
6303
46870
12600
75411
76932
35297
57902
76732
28474
83667
90452
29472
93563
1793
28278
81121
81065
27691
61370
13553
68648
63435
49687
39508
59347
49324
30140
50048
67902
28596
66817
9453
54374
17324
41889
20251
88661
91999
57077
15079
94691
85688
50575
77216
49972
57686
52386
28315
29910
77713
76218
81347
45765
93976
41582
54670
64404
83813
40917
47041
81719
96450
49788
39084
30985
62075
20477
32126
37820
88268
86640
92026
19568
45582
93166
61571
22354
28261
9743
90723
96683
43571
58349
78280
19514
42030
81024
32320
9852
43269
82632
65645
19383
28184
53763
97778
6113
64638
73527
45840
601
6192
8079
12033
5429
22652
62537
34164
12829
61811
14077
58180
87812
85096
41032
90703
36411
53287
14805
18103
32092
15203
4525
95692
14247
92734
5117
70578
60120
55356
81190
98465
45845
95844
82772
3043
91285
47786
1320
4105
31224
86705
28216
96418
275
75830
76364
68121
32976
18191
58163
54226
99880
68852
14704
28399
9792
32902
5078
82921
53695
14129
84017
79998
52712
25636
51086
64320
29102
1819
81071
13490
92483
9509
79096
19100
15327
64931
67065
40209
54825
87252
87219
64789
5880
8357
46591
24073
27935
27066
85109
33993
8738
90214
81445
91424
41612
83417
95991
21893
86558
67690
16882
40916
62456
33025
32215
50988
71555
83660
5492
98538
12690
76694
93921
24180
17269
14479
33528
31402
71396
87752
82115
88970
9962
11618
36078
83439
41855
88108
12626
31959
19015
69500
86645
4842
2981
29932
10910
68577
9752
36959
85448
18156
60109
18628
47060
88838
69509
92332
89677
48345
23396
99381
34468
84630
43934
84503
32249
93124
36175
47666
42870
10838
59222
62582
60117
70771
64236
83645
87419
92643
95565
89782
81529
5739
40610
38773
17260
8081
86996
6767
41981
97452
16501
95011
5809
67307
61565
9540
81110
41250
46188
67440
29949
54566
51426
33140
89228
11425
85128
9707
7657
80625
43957
64813
2942
11840
76841
23677
83373
77579
58621
73691
43912
58636
84454
27938
3432
82697
75966
1418
73620
75877
68461
52923
31875
71671
60542
71255
24689
52686
77874
25492
43086
34359
84576
44750
71137
82163
27098
13199
63423
45208
83624
50516
29913
92054
60934
64892
1572
16344
46509
72462
76967
23728
22377
29101
91095
29814
3370
72807
4555
63089
55142
36146
24366
79198
88410
62676
18667
98353
88611
16156
76706
99094
63479
36209
46253
13765
65509
66887
13530
2874
39958
14576
30336
1404
43665
76931
70498
78929
92147
96713
46788
16643
46377
89935
17307
21262
46884
18631
1783
12772
4153
67881
71946
38834
77780
47553
39224
4105
44420
80615
78104
15205
5749
44051
95716
86552
41129
7815
90543
49365
67302
11677
61660
69094
37345
81905
91511
97011
8800
98053
7131
54437
12753
53328
66215
73077
70800
23751
22942
84877
81474
97777
53193
34555
62222
37420
1799
86018
17347
38082
5593
23819
12515
97427
15456
27803
88250
57839
8246
34468
19501
91913
17689
88955
44746
60399
64934
82200
36076
19447
93017
82807
40166
58187
67673
42212
4881
30748
44686
30307
50950
59257
51382
14821
70019
87926
58685
66937
89857
5468
36957
1027
2328
79585
12730
30759
17908
98665
13762
49343
71822
61979
17578
69155
86990
52487
26000
47318
6245
18274
18993
27242
90874
77241
15663
31081
84308
13974
70765
19728
47875
44802
3132
63650
21387
83717
97613
2762
95050
4678
90843
24822
54515
86902
35468
71228
34648
9372
9900
75508
69609
67925
55786
29255
72033
53799
660
26753
49153
41356
48932
79784
17645
88687
57384
98433
81830
45634
31367
97115
30881
13958
58717
19843
4373
63125
40375
75487
81467
36678
20032
80461
76621
15018
95791
90405
3675
14131
46276
31539
60403
73056
63875
49928
21295
26093
14931
85360
28267
7840
52754
60347
56737
39138
61332
90027
27821
81056
68688
45606
83854
49041
75707
44906
58215
45308
8149
68206
14179
36049
9685
7104
42865
8083
63622
27478
32844
29407
2459
27555
21407
36534
51120
78478
60321
96729
77730
94003
28871
98964
65314
97024
88838
95782
74894
59129
79513
86245
16245
34419
95889
864
56699
92496
1788
22668
32014
99248
29719
96995
2728
73354
81855
61039
75298
3298
70574
58051
5287
62470
50110
77274
47590
38209
24033
364
27042
5540
13975
63616
23034
87012
36640
51831
78787
52410
12779
5993
8855
99002
88554
17020
5522
29520
68592
96519
72075
19308
22466
89685
26292
5296
23363
18692
37171
97462
8783
13540
58764
1363
19014
17664
91793
86048
1920
16124
72433
53976
4825
90944
62211
90026
92675
31653
69794
55395
77286
47973
48317
481
98282
80792
41056
59024
88504
35955
74241
55586
94731
16588
82255
63635
55384
93633
97804
19302
75467
76864
47443
10408
79074
26672
77967
19296
11908
82277
57376
42764
19102
60099
96418
16289
82761
62825
99117
5942
94261
46105
24656
15102
44442
99596
98019
93866
17274
19917
7998
45567
21717
12647
75177
9203
4496
5030
22527
43510
37187
1540
47372
7357
27965
40488
74887
96127
19696
76862
89225
11746
74794
65403
76986
68936
65222
62548
98697
23595
26509
88870
65077
25383
9604
3701
58786
70495
46297
92210
75840
58838
64370
57257
63605
75637
9421
42686
36011
36856
52177
61486
62298
57297
77466
82778
26031
23319
91231
90659
65091
85658
27222
66385
44035
24600
85082
95515
72834
96480
18936
16963
50381
3566
38368
44058
40347
66508
40949
87610
44215
57354
23153
26343
61070
94585
69812
37874
34459
23627
37906
93999
77310
32431
62527
42638
6352
71514
35468
88071
26065
81573
91895
13442
47488
94603
23209
91727
19511
74274
25399
92094
23872
5296
99903
57918
58775
77497
5577
96228
87791
96129
54236
79805
4818
49925
34532
30318
29664
89505
1604
85316
65716
67629
23923
57422
74382
27897
67105
97158
53713
9207
24487
95182
19370
12463
66693
10917
49281
59864
25198
64351
73054
98365
29218
58413
32387
81615
19226
30648
4368
70049
12034
43004
9432
72650
97332
66574
96514
43026
1385
4217
79875
59850
7904
2324
14341
45436
96957
89512
61774
99930
84592
31357
17116
86100
86257
62859
40343
34288
34048
75630
32130
47600
63211
79209
83983
3157
23096
69061
8426
99858
74148
95634
8165
12219
60669
76788
93224
40498
82108
23314
71702
86482
13561
82311
68711
81534
74816
25800
50128
20087
6428
93951
43839
45362
2265
78086
87529
10105
5937
35301
67491
59702
91627
45189
31166
53569
12385
80371
72760
51471
72331
31216
18892
24280
17318
98175
45438
30197
42124
35793
85557
54834
98295
13194
71380
64340
35748
23243
81085
78384
86890
22889
49770
3005
79753
58956
81215
70092
74829
51074
17472
76057
80274
24844
49025
29093
51580
23961
74449
13486
15221
28567
59065
31242
88691
85084
65468
27814
8851
31672
17641
8894
98061
47148
81109
6911
34464
9958
87129
41270
31168
41621
61394
32341
70676
24755
58275
12978
54213
3886
79598
56899
39446
1309
12173
31045
17368
70982
44828
53693
13218
24201
2775
43229
83313
2935
35440
60847
30597
94288
94503
49603
53208
97821
64635
83589
22144
98203
21567
43898
95785
86362
25652
65960
18815
15876
48238
77056
59783
87502
21429
54848
7379
51883
16253
55419
5636
94165
92857
53332
34300
78514
52351
4401
46400
53171
54378
35457
23976
71729
88570
54258
42917
8011
9127
52215
42928
4389
25984
540
98013
81344
16441
14030
34416
80723
21408
75403
37203
63356
77296
53301
62573
52831
40761
83599
2636
28065
64518
36838
86784
42811
8648
15766
32808
66556
37798
40133
17717
89247
71005
75030
13952
7988
28982
68185
43505
18968
65777
75881
62507
54029
98168
87558
91865
71869
25801
94364
29724
64550
38354
95123
71808
58249
77448
97613
23906
78639
2449
28604
62108
57703
87364
65222
13950
99928
74960
3509
27149
5777
44963
13850
10431
26782
2876
4293
46264
8128
16461
34405
9489
95522
60089
52612
79798
59433
16521
11167
9744
89620
89663
17798
59716
75971
5706
58373
51902
1930
35612
13851
61230
2760
36237
50084
80068
95550
21147
64537
95867
17938
2520
49183
17687
32335
27085
16393
32736
24828
33827
52199
22140
15239
96549
38947
54785
72277
10495
3597
93492
43432
73719
49300
14067
82128
48831
7567
59307
11391
3557
48406
21624
74066
40341
92383
17091
51324
16430
68156
17773
27245
26691
59107
95655
91118
60496
36829
16018
15022
83067
6982
20730
27082
91339
57670
83542
1701
17236
17651
69322
685
35761
87112
33686
56825
90006
780
59319
33392
76417
30972
14502
50096
90974
6350
70943
88784
33664
54637
75779
65485
76199
43021
2333
52848
78678
46951
53580
90016
18432
94914
98926
4624
97368
34751
20674
55717
33323
73248
42093
60601
33590
44848
5911
93986
58685
59987
24467
57913
44836
8396
80876
55271
30958
21034
11958
54930
13771
22608
11097
71453
32443
48059
8111
44638
94867
87262
45968
67527
93954
5168
64910
23130
13881
63158
48210
55262
22575
26927
29979
64059
21793
84748
83305
71760
93191
5501
68622
7665
16626
82054
87682
19447
79825
50922
83482
87017
84845
2798
35790
85095
88703
62122
15698
8484
30535
4826
63789
27845
62312
1937
847
11674
80795
85077
47458
85684
37288
17245
72243
22842
51163
37187
75442
28575
64139
79955
12961
63400
72293
26640
18198
84315
10618
77955
10322
81076
67728
32405
71460
69240
47409
61043
22422
366
3637
80123
99045
44719
43856
23629
87157
88285
96538
47174
35204
32899
78342
29045
74731
8061
83802
90099
84284
55453
65206
79474
83767
91010
36172
55815
88764
9543
30425
35002
90084
7693
5213
26964
84053
1883
86510
94827
72608
38613
13609
898
5737
18961
921
73114
64304
38529
13379
37698
26844
69522
93131
53284
12339
44064
77198
97116
69363
87028
93052
74965
66092
12703
3964
87712
16925
66379
16275
90354
4076
38374
53778
48294
61214
239
69489
37457
28919
4495
21432
48528
47788
96297
46428
14145
58348
33092
74283
32807
80394
94028
10317
15035
34477
94652
14522
98352
10729
49537
7926
88147
78200
37685
26258
64839
37505
95560
35797
75933
26560
97348
77553
72623
38086
48034
25625
58241
57932
19611
62530
13451
76180
98273
33541
97019
21241
18838
56507
78339
31697
56478
72870
93770
65554
85176
38521
50576
22429
80509
51655
16662
72222
50575
21414
46677
60804
62527
88224
9792
49942
17802
32051
526
48491
49758
8010
52455
24743
19648
96344
99051
78657
82353
4089
49226
90733
28729
69028
18648
90305
18083
88227
8075
69338
19217
4057
35488
69458
63812
7462
51646
43907
83265
49470
46732
83513
93674
20677
35003
61428
77161
27428
78878
18927
29030
32443
84563
19563
93111
95965
94276
57738
45102
33798
18857
6574
74472
93407
13400
79524
20869
55710
87645
85087
87943
82526
98258
33089
14798
17056
6777
72025
61573
12319
99891
69559
84768
26506
59367
88847
50240
5648
99192
9884
38183
8109
68208
31692
27855
5661
63230
31504
73792
62977
17712
75557
36819
54233
86432
98907
21855
50301
73954
91671
4348
92193
62095
46434
34028
84457
88668
85632
72389
17482
13215
86377
96593
28536
19952
7064
35527
58260
12282
97766
49913
64794
58129
67767
8675
75719
43544
13154
92566
16007
68829
406
69320
25614
34036
81567
55323
43515
86648
86875
96841
9844
99548
16923
77683
30923
29202
38589
5111
88716
34076
35367
572
84718
62764
88391
666
71697
99435
29519
59219
43570
78187
31291
65914
63395
8398
6109
22730
39274
4833
50416
98420
97893
56815
3702
6565
34747
41733
78957
42252
73624
42993
46525
30316
94619
27383
99321
28152
98747
23826
23432
4967
24445
75865
92149
60022
31947
95117
66114
99727
49163
75516
80302
30282
97933
85931
52216
72836
90909
62903
5255
7102
75760
3807
21288
78399
24647
90442
53375
12327
40377
88375
49266
77956
97223
41858
39154
87843
87642
32748
75835
16404
30348
41842
85689
59972
67151
89794
83616
59173
95698
95553
56160
7017
63382
49684
18967
25315
36192
72535
22110
53195
45148
48150
79943
74931
71516
50957
78165
45589
46092
38795
17447
66356
37625
68321
82248
66003
59613
63487
80872
35171
41382
59329
229
99148
71329
44471
49212
94374
76720
28879
89086
7636
44110
82564
30335
47076
95407
24499
43867
52209
54327
89350
95509
59270
1076
91890
98363
33281
37544
39180
9118
97580
64503
59060
95941
25983
44230
69618
31750
53778
84083
48619
55014
69710
1067
56732
20714
35795
41767
28839
93324
71890
58480
9478
87503
22798
4945
4527
59127
71436
36518
43804
44954
56679
61861
51275
58011
35510
35946
32873
97753
67752
92593
49698
28227
70637
15757
58707
69883
40972
25879
92937
78767
11895
76058
68332
13947
3313
88071
8853
4011
32015
19386
44939
86350
62902
28052
44989
62099
27039
32016
97155
1241
93601
79100
6165
46769
8403
15354
73391
71637
83120
49531
86135
49370
36175
40475
6848
71119
4659
18037
79712
86659
1908
27603
23807
5962
92871
49563
53579
81786
38586
78280
13171
59887
52985
74570
54019
27541
31764
97202
75115
83285
92475
43683
19990
45071
49418
93500
68280
51301
54197
17167
19071
92921
6921
38717
46196
50746
84618
19210
76898
91014
40838
57542
47056
89627
80919
37965
79740
90630
67038
84319
66575
24599
82534
31969
20895
4459
68775
11503
32284
20765
26772
67188
2656
86318
50403
64219
86833
79633
83670
99973
39408
98291
69912
79364
72784
73685
57023
20505
55267
56116
37138
33781
24999
49978
19147
49408
81921
71488
20048
40811
85152
61782
29635
55910
96826
88897
63950
51569
69896
69503
13087
50527
94238
57518
53749
20478
84834
14609
21137
81833
37718
93979
56294
52138
13392
85535
18465
55117
78434
8848
37700
80226
67805
61928
55240
59800
23032
32236
90802
37196
1531
99314
34056
1148
76474
56528
91687
37921
5528
78848
49851
5490
49600
12001
21214
44140
70580
91001
84794
19488
31137
82948
50775
69792
84897
39912
97417
75245
58344
266
12735
73485
94609
18563
96707
93531
97787
16390
25128
37527
37135
84132
93203
53674
10286
51719
68201
36903
26407
89618
82442
25062
4972
53026
83597
39254
38315
56480
24898
37804
53853
49451
84320
88410
21050
90380
5649
75724
73830
17435
31442
3140
82775
55938
54285
98399
48154
39729
89626
18098
38510
25214
24246
34561
57649
42500
32779
96812
26974
39814
51347
19628
34945
71596
42987
63525
16616
15893
23374
13839
45924
23803
98614
98598
8018
95620
51699
10261
58283
29454
93248
59792
47065
62135
59493
62096
51157
19284
72175
52246
85707
62943
27039
99989
63645
51551
70593
98713
92865
29200
40723
90020
36479
2219
29089
29841
28302
36477
31372
88755
16102
69688
83616
71553
24777
64929
41150
52033
78738
76072
94789
15431
27915
5511
83125
71028
82520
65829
5675
68953
98833
67005
94613
94748
59028
92932
99772
45048
89326
37094
51800
70063
93024
59770
8630
90264
52213
94005
34602
78541
31743
4936
65375
79517
19564
90889
35706
56324
41389
12786
16832
54122
624
21702
2404
95261
5837
52680
42608
28874
71220
72087
29990
48907
76211
13998
27037
35760
37015
30502
47241
26603
65197
23553
83187
93908
64240
2021
71270
7205
18555
96427
90374
20861
53433
97830
82755
89694
66661
13638
51469
35144
62600
74555
79705
34511
87833
55868
46370
35038
29673
87911
93390
7048
23304
73606
6213
75443
85555
48227
49197
29184
68482
10365
61349
90779
53235
50052
50599
67822
10156
88521
5044
79499
87463
24232
92806
81235
37129
12892
32710
38827
37461
88762
52248
48315
76152
46010
92972
93515
84771
81280
15989
34530
24624
19165
80670
30946
63960
67444
50748
55179
83710
84645
20316
78537
81780
53069
66332
41139
74681
85549
27010
76543
62582
40456
68329
51997
88648
84330
3263
34086
55689
97028
26479
35625
23825
69200
79765
21881
67904
60311
98182
91512
92615
71852
60400
36278
63177
22330
91901
19510
34870
99420
9374
57767
93328
61686
43518
24069
89589
65864
90079
63487
19868
85787
13014
75660
54805
22530
65716
43516
2102
71488
62957
83107
17172
84141
88826
92477
70653
40345
68383
36862
98270
81741
37279
89061
14109
51964
77875
15636
60479
47030
26692
82406
43344
69458
41353
98906
31884
51254
45459
75696
32590
31505
69446
78943
72649
70592
83904
13251
87966
56358
18915
68909
1542
40402
12703
30464
45592
62525
61054
18219
46738
99048
12814
16510
89133
60462
72581
38843
92196
72396
55547
64593
25882
94368
26295
72525
77714
40365
16690
68875
68958
15483
91564
37072
81938
74350
13561
40898
50663
53118
1394
5330
78182
53500
83883
5632
3279
35516
45801
76627
88434
73235
37288
18210
15475
23292
62608
50189
88364
95347
2112
30601
505
39789
20056
72509
85289
46272
4204
44938
62393
82511
93638
11567
11199
91228
35300
19769
85207
17962
1976
11274
89966
5064
36734
33670
80914
33482
50980
71042
64224
81433
47836
70445
53439
49202
94192
40214
55120
82325
36049
74197
32828
47079
75940
60731
94128
96990
3828
55389
55750
77063
10362
1507
15636
79529
59498
63142
16503
50400
65737
35916
7857
5007
42511
58881
56834
65514
67268
22086
51780
55410
32234
62762
70874
82756
64230
93999
13687
26170
15631
62910
88115
37051
13083
61456
6906
25184
72655
69702
70982
30735
70342
61048
29875
38199
15671
75664
26107
10950
19207
64866
96006
77408
48328
73240
41811
33212
2555
28422
70040
42250
7788
99846
71457
8538
34336
29203
17037
70975
99236
36053
56979
35655
67154
60100
21254
91507
9192
82808
57009
48237
25486
52276
63358
92098
21846
84257
33001
51166
69305
5562
68415
66672
21745
16217
42727
95901
90178
70333
99913
53361
12507
71214
17441
44132
57138
84421
82686
24086
30226
67601
65222
84681
16201
50440
63385
6638
29771
35320
30786
71425
63952
49087
29956
965
81699
45579
2642
55274
23762
91861
99100
38083
15346
28104
40381
20155
56187
32009
36107
65897
55713
2173
46853
17012
7486
62603
73672
84694
13555
93420
21413
61408
12554
61194
27738
9484
97875
71686
83037
58811
30976
87169
92492
65970
93989
12190
41480
73702
71398
36930
55340
42700
13501
35744
24891
2372
95813
60698
62694
97002
53586
57811
53488
2056
99693
7668
61343
43444
92767
50647
17258
92962
4970
25299
4668
38037
31510
6472
30741
34992
24066
38019
98292
89885
15990
41321
63801
27894
12451
38662
88243
39316
29778
21071
98648
41376
21583
2189
27979
79852
92798
78662
27258
63587
82828
19038
17693
69176
30552
36577
81691
56182
67088
47172
58361
52241
68509
25496
36310
66013
80055
6078
76331
7088
59127
89640
18136
45083
41897
99507
65868
89610
93980
61326
47769
9189
76584
5827
66545
82475
83587
3609
29669
69182
608
87022
70367
52387
46134
7503
72577
32996
18633
65822
6201
73054
42216
24696
98807
15071
10318
18660
65697
73234
74051
28172
45556
11525
24759
69984
87245
60386
58386
45065
25772
41108
54119
65013
10614
58135
38338
4759
38298
55401
14137
3373
35641
29377
53612
18988
26649
53509
10194
11935
55229
18115
68582
75753
86689
85237
97652
45618
62333
4406
6993
12106
81192
55554
71214
13929
27190
59316
38137
86682
62823
36311
28814
32545
92461
31096
45109
9378
50004
29594
18711
1302
32731
39329
4876
45561
38165
32396
66062
54679
2860
74630
37748
93208
38013
84209
23083
62319
25335
51992
69951
42036
99061
95666
37820
68085
8866
85996
842
48098
72429
52401
94474
85705
40474
80900
37030
72484
7565
92495
95755
10381
46894
86211
86302
17389
25531
42121
55194
74058
78426
82511
12953
60118
45829
79507
47943
96329
16352
27167
88885
72857
26893
34964
94190
73544
24839
73113
60170
21281
73732
18982
72451
90668
24975
20782
27747
61678
28625
43959
73762
62211
98831
66209
2000
47609
95992
40706
4704
61720
1709
90529
14776
42035
26370
97648
94447
36763
73816
87069
91375
13670
73967
30565
70196
1541
41006
72166
28635
70462
40301
24777
77312
48546
74686
20974
73507
27897
15438
33838
22873
25500
21067
7901
95766
43896
40133
76379
12596
10686
19893
65288
38224
86422
69825
49963
99822
76577
11475
29798
12379
31466
76117
73662
56586
8182
31521
50761
49295
92059
86007
34000
91713
76550
22033
10765
92983
20961
91986
33027
39672
7140
35734
57801
71151
54192
53572
21407
79677
30443
70415
34590
45398
61504
53252
15849
62092
62981
96740
50041
80117
85014
17343
24054
53721
28367
8232
26680
49854
41378
98347
20419
62054
81684
29207
13075
14499
6793
10949
83316
19552
69815
62263
41578
1606
4650
91089
62396
48447
46102
20081
80065
7841
90480
79276
75414
91348
30531
88412
44568
93949
52356
84331
65550
12834
19645
49773
39825
96677
33852
86037
4587
67940
43278
89341
35363
44806
11533
47633
54698
80295
80007
63872
33581
71320
94442
9935
76520
7058
34210
10804
79132
12952
77909
76728
18682
67696
54366
20379
47095
14482
39880
17163
42545
69806
48921
54124
22125
43640
51784
75408
86123
12539
17762
47281
94052
21669
13848
18277
85873
29277
14743
98403
37824
21629
67598
90891
1529
88051
3112
39315
50500
45623
40421
2438
69769
48422
75043
89662
34566
27869
49761
41856
36935
20142
20844
50022
49909
98199
15044
46783
18702
37594
13821
79759
10193
53546
21787
40120
92075
50057
31190
16593
98870
68702
59465
71165
58241
7037
501
75988
74071
41345
84721
91823
73275
28484
96652
79998
51200
43915
92442
77014
40574
45742
46077
7442
26478
85684
3591
37729
78215
33949
34155
65331
95577
13093
76954
45618
34305
57552
4083
93177
50910
8961
84379
60973
12880
27641
25425
12077
9683
96787
97552
27923
49909
48038
71006
2133
83538
58610
51904
9703
88353
33865
94257
38760
74814
67328
86201
11056
24941
88168
63927
66253
94256
15403
40929
57268
23240
81264
40404
16654
52362
55704
22930
10696
21990
29815
34292
2274
61819
93057
62426
21997
27607
2571
28289
74857
27875
20250
32507
13748
77940
93154
52103
69859
11848
9663
84454
33324
49433
97377
76716
96900
34654
49510
52360
25309
72047
1826
55644
10087
46638
73912
84208
10596
38222
62795
21163
8546
35646
58295
5045
22590
957
33054
79249
41654
57685
33882
89627
2709
7851
84039
95484
48304
33559
77069
52265
55449
81158
33056
43464
7549
51291
70372
85478
3827
81196
67615
9517
28551
7170
99995
91823
29336
27051
49429
41916
40091
34312
57514
25345
75589
90214
88949
58952
40946
94460
71657
44896
86848
30699
60467
15437
39986
12048
9948
85257
37578
84247
70267
65910
26674
8481
61466
38639
16207
48050
77493
18919
34966
16494
89239
19866
26412
10433
79572
8070
62583
23390
99636
46879
69901
33300
21502
44276
98917
97939
78509
14284
32371
76270
49310
84176
82199
89326
69249
14108
36239
46598
93712
69156
13705
96349
29134
45998
4575
85753
17973
73900
78688
41650
58273
50917
24674
90636
42000
35030
45213
56587
76804
79449
56274
25182
43898
55088
38613
45744
29230
31428
90309
29785
6367
29247
44150
57280
33306
98471
74068
54421
73957
36285
23720
63704
40469
98029
45352
76630
57047
10439
67452
39380
45221
72114
95904
78928
2143
52732
17279
88754
37900
88835
42718
93371
53130
33511
88837
18784
70520
36018
87360
42531
62692
27065
97754
87787
93012
11339
71850
4499
4014
18480
4461
13201
38575
22897
25614
72926
34066
83011
90451
10548
95514
83449
25475
53266
97342
41118
60267
9066
23523
18727
49216
45078
82847
58771
96388
94430
1758
58847
99084
53803
59525
87269
69353
22212
34553
1506
58368
23487
73877
90864
31917
71923
89412
61804
51512
78703
13146
17801
76308
89952
23364
58063
39317
63009
89932
65755
6498
93623
87030
99704
73110
55318
91332
26453
25733
63860
72311
69807
85196
42424
11014
64688
92062
21935
73343
94094
7667
15152
28445
9471
68574
41785
90160
36345
83808
15268
26353
47188
57173
28803
14319
28653
46715
42268
50413
62013
8659
65044
84158
38182
32315
25823
16807
17714
20826
83207
6534
36764
58868
23998
3597
3111
84929
35989
52728
54553
43037
7876
66613
17578
65415
38917
47779
95850
22165
8653
75743
57013
589
45648
15457
83027
90766
5798
2795
11705
6795
67186
4548
68669
65345
36587
47342
33812
63048
64917
41414
44724
73335
34051
91616
49083
77087
39482
66575
66321
23473
13687
66251
83755
82418
68472
78947
16460
17546
47614
39882
81790
42606
18270
44475
60041
57180
63264
48509
81489
23443
92055
20796
88632
5740
9653
71898
39960
93206
20066
86151
43693
97353
79628
19872
50353
88926
26639
73885
83480
53911
9588
35925
2858
62242
43971
25655
20600
41484
78982
57777
19068
12485
96972
42780
24494
15808
46941
88866
71682
2262
87098
74413
90207
51426
13389
75125
97309
27936
85280
58409
48536
82548
52740
71165
65007
12872
95529
18563
27107
253
48090
13897
91126
96011
3780
82709
6921
68526
70142
17116
56201
26906
97746
5343
3986
46577
52258
90348
74308
16042
41973
30740
87128
25402
68744
22442
50958
17533
57123
77071
4267
87355
32437
94763
13210
65297
865
89364
95562
39033
40509
64396
62510
78891
31263
37299
1753
46939
51804
20775
77480
74985
13956
57612
49515
86595
72782
5563
694
10416
65704
31941
74938
95582
71250
3232
59197
95584
18635
8560
42895
57201
91486
92539
29442
25865
17659
62448
87520
86881
35099
27028
64594
34782
95026
3237
24025
72944
94289
84558
28936
15459
77777
44514
49276
88219
24579
35906
66908
38414
88311
26883
69324
71166
65599
6997
77162
49814
40605
55387
60345
47764
59222
48783
45050
4105
97237
33045
97443
30277
79988
48372
65322
49999
36619
91354
31294
21543
31186
68889
76531
67227
73880
97981
43206
40143
61482
599
77375
66988
20651
79095
80271
82775
55389
61796
74699
36881
4865
41211
96313
29917
3922
66621
41619
22157
41912
63929
10627
64163
31855
60686
18172
13680
83690
72117
99229
6060
69077
37646
71002
65554
50096
15725
85171
49942
94051
44429
94779
3328
78863
54259
24846
99337
12415
89553
45955
54762
84541
10074
94793
14885
74724
38135
34067
91338
30949
34547
63976
26563
73178
17915
52354
22579
11376
18169
40283
80008
29279
13129
26883
33758
95540
59377
70407
51694
58059
60998
95871
12182
97411
67369
95216
36820
35392
96063
17344
39992
77902
19203
81094
93012
33727
65852
55533
20742
91477
34672
96636
35211
17825
524
3368
29831
5183
23266
17260
75629
34718
91302
62470
54728
2348
58634
35736
7189
20180
866
68959
49164
81720
81417
70007
95749
75739
10523
38611
52633
95802
73949
10852
38719
88420
69047
66152
92694
71910
96262
62372
41556
83122
17284
90659
94726
32988
70428
45500
13604
57074
34915
83271
64925
2856
55242
5210
92223
24778
8421
20992
61128
88114
89761
67278
29265
37703
53249
40258
41746
72117
78384
3577
90993
54464
95129
80279
22177
92334
36656
84754
17407
76248
98268
81994
55661
53359
29517
40925
16065
86359
27417
75770
43116
9202
70909
50301
83506
23982
9306
58123
8408
28189
55258
84445
65915
38107
73178
79299
76552
48418
94861
84532
23200
62363
65513
23983
49887
77301
84243
77337
60291
35495
40077
97868
93776
50894
3727
99155
61619
11441
33603
48417
37676
5544
33859
12457
68893
45448
82660
28462
41180
53547
2001
79829
78249
91409
61322
82144
3234
14630
591
93783
33088
1428
80602
47873
20115
65998
29288
58200
16434
29486
75233
68054
61072
59846
46576
59052
5559
87119
82913
25738
15592
80962
98780
88291
72193
33573
77376
93418
10334
88660
26622
69713
24662
96577
42637
97734
45847
23087
3335
609
61434
65945
92863
98581
16738
14928
28687
50779
26992
65372
2770
89387
95472
85174
76826
28033
388
71830
42059
31346
38580
11121
82338
76440
82077
30730
96896
16167
69510
5990
1827
47573
53057
66341
18048
61312
60818
30610
65541
19855
25977
45347
91900
40213
59140
24717
65283
27141
95967
9728
16303
93161
93188
50680
26447
44147
87529
84504
92139
72039
17469
93687
85015
66727
2361
72016
3962
43695
90931
78857
9046
29724
27782
87263
58056
72834
54824
12946
96178
79827
16995
22819
7930
15889
58962
18909
15754
58623
42172
42065
14050
12634
13057
79583
94146
85724
39596
14590
86590
39695
17837
91368
43490
73513
7191
14947
99013
47817
28524
39585
90963
32785
35797
85611
34046
5689
13099
41973
8281
50461
20422
97023
73957
89725
56448
47245
70872
40477
20497
47529
65277
40041
40437
74378
38807
73550
74123
3728
69440
35957
75566
17472
9790
70159
86555
79297
38669
87945
16022
15871
98915
26485
98122
94504
34317
56756
99532
27438
94743
10496
60861
76698
89637
84400
64508
571
48394
60709
44095
3213
94805
13444
17376
33098
35943
44149
16465
59624
23452
65857
11120
15383
58456
29128
77213
11643
35791
67513
15753
53912
77258
87880
49479
32190
58359
31895
24292
22684
16325
44826
78061
60409
65582
75663
16649
53667
69219
5173
70329
81578
45294
37820
27772
54149
59675
70545
97833
96504
56812
48391
52031
76929
54729
25075
50415
20515
56986
88144
52741
49174
91027
44380
23384
29457
59208
11643
24829
81378
80394
95436
68057
36004
24921
19201
66717
19578
11318
64413
60924
45971
32634
89277
95998
62730
69909
75707
35472
4986
94965
4386
89175
46565
5825
27544
75270
39574
26391
38375
82152
13799
94003
96273
94267
81278
73026
16294
96192
93976
41473
34720
85756
13353
85275
8935
38887
23039
96319
51043
4802
12630
81015
75934
69328
43050
76582
28194
5225
32172
76002
26734
69334
76798
4465
59254
90674
75449
23338
70789
68883
92819
71842
98330
44912
58107
62142
92158
67970
25358
25458
76881
66814
52509
95910
19232
49546
45824
59985
35221
58380
96984
81777
83227
5912
18333
64279
90267
40163
28777
19160
19055
90258
17463
11376
16674
94090
86355
51203
9444
25694
98166
50321
50807
54418
58460
38809
3349
29552
16541
39482
32387
3663
78931
10156
63624
71495
43922
84036
93689
69317
97657
63929
23792
64818
40726
8094
58663
70425
40548
44483
28412
3199
2245
76679
8610
65189
5161
91136
73398
72370
23824
98039
69525
76592
29046
36355
6380
69072
99038
18220
92322
42924
77648
44062
22444
63811
4554
26877
91994
75643
91619
3989
1450
18074
32336
58736
36663
14896
7607
86344
42631
80679
96397
76571
62944
47461
4453
56894
65763
75263
46522
23981
1964
65684
80337
11034
40623
8978
62664
58138
96751
76853
18432
28655
43769
44104
71544
25486
6657
42781
97115
11583
76443
71879
36026
17423
18454
29537
17299
67324
19492
60243
42601
93606
21490
28543
64118
69095
86989
98918
91734
15701
4471
85840
95917
26272
75419
25078
88305
23121
12232
79420
34768
44816
54403
79625
15275
5507
43510
61502
824
60404
86930
28374
24962
79316
93861
96041
94770
35077
2981
31372
48211
95577
12367
39975
66556
75438
8336
59649
71359
99136
79564
6400
46343
4717
98733
48429
96754
29665
12414
28829
87248
63864
7348
72621
78760
19513
74309
87476
75085
1672
47363
85480
37512
68453
42494
88132
17928
34427
30315
31600
95212
12568
44398
96552
92424
74907
75421
57339
41696
96233
14197
75628
58976
10741
15141
95979
38058
7648
84750
22178
50243
62046
92150
63131
81633
4530
66445
67595
32402
73850
9914
33480
24458
24012
15302
93173
17462
84470
79542
93766
6663
42279
56307
4939
10903
34998
44173
52063
23312
14016
79080
45955
58229
56965
98808
96374
74359
52141
54495
59042
7137
8649
65863
72867
76996
71973
75221
73106
1618
52308
14215
27734
84307
59847
79796
26317
20475
49679
43290
87010
78388
6420
83317
72162
79062
42900
14092
30734
34005
41315
81013
99798
79948
98446
60919
28544
90198
3680
78184
14692
4418
74376
29091
18744
92230
83316
97490
42537
89240
46014
29221
55112
73453
6235
57970
40199
80703
87797
76328
6963
54351
4966
98523
24985
64989
97199
64445
41783
2509
62468
51889
19166
58771
81639
52010
12010
77969
14374
55773
41084
4843
82936
18036
54497
77430
7640
61748
73934
35766
28889
54013
19237
1556
48960
6916
89236
38208
3208
59025
17521
80326
53352
90444
6894
3481
27298
54219
3241
40243
52362
64296
53832
31534
18320
14841
88025
94704
46004
57585
2966
32039
54045
13180
75504
9339
39485
5444
20485
32906
54100
89752
84314
66202
65019
90139
39901
70247
86527
98311
88663
18450
21900
22401
90973
62779
75490
5294
90367
83456
4126
7711
12648
66852
48991
11569
47950
24923
24337
65318
76639
81429
43009
27155
72768
99561
25957
41834
99951
61532
16067
93673
60770
92025
2411
32236
93345
84553
14354
83735
29555
65341
56351
63698
10060
73431
7196
30832
18825
68412
94101
99740
55166
28932
47888
71071
81632
53702
65996
94800
43336
39622
64193
92106
46821
90909
14225
17553
578
33525
4499
21504
69433
69245
73504
1490
68774
21252
30093
17684
91111
14329
82377
61087
35902
11995
74424
30123
4975
23751
67869
95574
41155
63835
66446
90526
57388
21224
50894
35727
22500
93526
12100
82378
99562
88703
25225
91718
74114
86920
26728
26845
68866
3726
46248
57087
70833
69116
39072
65479
3292
71624
98621
36121
59278
58488
34154
64767
46838
10473
81073
91935
16484
62904
58068
70269
20104
24023
14643
96683
58591
70647
6846
50636
73108
67629
62793
53202
57762
56989
19849
3952
10239
88642
63790
47033
7936
7203
19770
72632
55909
92380
22673
28906
86082
33264
86930
88088
81671
80025
99291
81545
22174
7772
54461
58426
39496
86293
63701
99624
40105
81788
28720
74077
61338
42840
65152
79886
43598
63926
44593
45641
41919
97124
71801
1004
55903
75973
68582
97185
3949
19230
78669
59995
94159
72737
35730
2262
76339
93998
59922
40732
86556
27569
61075
6180
37060
97441
52463
42773
81961
42464
46459
60034
66440
13086
5465
55633
84960
83125
92951
20237
91659
4101
37237
57753
39907
75576
95018
77153
63104
81324
53066
55840
76201
29329
69534
86670
61816
88892
22830
87179
89005
81538
67823
79301
99387
72813
59497
67131
16103
5504
13462
60485
64502
55787
53066
97965
89940
59733
79167
91034
50578
37588
5032
94416
94372
56366
90566
19588
70507
84458
10891
42696
24060
35120
18203
89647
75206
18608
91639
77371
93002
42246
43432
6775
56795
96015
75617
79027
61022
6883
54029
41677
68394
30988
39442
13842
83628
59538
64976
65137
18721
38723
4623
33598
96824
92376
39505
78730
14845
12477
10580
94737
30770
17033
64211
95077
2547
51677
45839
60196
72466
27362
93007
84358
29866
55801
74139
88427
91421
4025
25392
39061
78977
75686
48941
96409
53331
89969
89502
2098
7852
71604
49201
20663
11342
27457
37166
52406
79950
83214
68030
77946
81516
72216
76376
2827
90224
63968
42140
99737
53305
96107
89356
55319
36453
30255
79874
77411
7509
80326
55823
89164
21738
78290
61442
63168
9745
15699
85780
14760
9995
5720
94030
95402
10635
8527
92966
58893
23520
39767
97522
6700
59996
55629
30248
65176
45854
19121
35053
21003
57800
80457
9581
5450
46403
35735
21726
18191
17266
94741
533
24931
48769
48404
27199
48996
26275
20034
1557
27726
49846
32846
97826
93901
34121
59392
39822
13565
65429
99483
16365
63746
25365
20857
37468
23962
81050
46390
82254
11091
73524
9494
15705
84666
9951
65510
61237
25238
7705
55929
38675
79243
63394
63522
56133
90482
94172
22007
9961
13276
7123
89937
15310
94941
21432
10170
74748
78682
46872
48450
92939
77598
18238
37159
35085
11819
57017
30841
28454
45324
2787
14054
86227
90048
69705
83645
79564
39600
40586
7220
26046
9368
40345
33568
69199
13635
20374
74680
13200
71989
6949
73184
61936
20065
86074
64891
27703
31570
28056
42038
11372
97875
60975
54415
18376
68045
30215
8543
83424
84636
9192
32479
3422
82127
48183
30611
59053
86881
78491
68658
30853
71218
77657
57302
4600
45876
48454
78569
20926
73420
79670
78010
49142
59373
32882
45321
55279
57929
70296
82864
26100
96510
69410
76584
308
68787
90114
56688
96650
55172
11951
95073
61524
45247
55066
6883
73055
88435
10334
53185
2641
27665
21636
46644
20700
38436
66667
95074
98425
46189
58750
75149
32938
1634
15920
40734
50495
72469
20880
21743
58741
17645
88282
90044
17547
86423
76177
8881
43606
34351
67669
40570
41727
751
16718
37339
55784
67522
41189
66494
69718
62629
10091
24196
44037
91231
58680
85638
27485
56323
24164
45777
70137
25986
64331
50707
98375
57062
51294
4021
52643
50321
1489
24371
97628
86097
46983
59731
37126
22119
22471
13452
77164
47398
18474
53335
52909
33099
88401
81372
15079
33388
79420
84391
10120
4721
3673
14611
92558
65126
47119
5832
239
10587
97349
82684
58210
15984
73883
34194
48810
45545
10444
26687
73575
10013
20873
1522
57115
94826
22545
15010
73321
38390
83992
76174
17020
53619
43816
61448
96127
97406
69179
6058
55298
29611
97016
75709
12313
7382
88505
15057
77728
61822
98711
40859
55828
75260
89339
78050
70467
86193
8651
30238
9138
31450
83355
84130
75568
96668
5152
46607
7642
34023
62838
77235
85226
35711
91902
9880
16967
51607
24305
31295
10031
70616
61044
506
1846
78397
39391
53642
54589
41274
57304
11085
70851
93924
72074
15487
88919
82181
13829
10918
45938
30872
8055
57303
56201
30386
58070
65490
47005
39135
24880
4820
46468
22867
21107
29431
57610
50513
29576
28113
9707
93751
577
11983
60518
26584
67985
65243
99822
38727
98466
49931
23441
41018
72664
8114
87570
30423
37014
35941
18857
50822
2795
38934
33206
10242
53109
18208
35582
2156
71978
1790
99351
20209
63513
12700
28004
37447
80972
34249
70552
46971
59522
30969
65282
11490
82701
1137
9001
33197
54633
73244
15920
79263
67962
69046
88726
27922
98737
89164
57039
26026
17610
45192
88370
42668
4568
49686
64254
61583
69928
7088
16799
19259
3445
64386
36071
16265
77379
62390
10188
75082
30896
59590
79641
87371
65904
40008
67052
91994
24847
898
37703
23895
33373
16855
59800
7213
33805
47946
94962
56603
27189
77985
7561
54892
66663
40904
52088
39733
6877
65582
88714
6462
85035
66099
66991
20980
33037
41447
27800
9406
10132
73543
59726
68253
59482
2592
6140
11204
71549
67392
50737
41663
42379
44350
91693
71771
79699
47532
64588
46407
2389
39430
44301
13512
8438
36819
26520
10735
89906
54231
73925
66126
15838
24965
22582
25566
15400
25639
43296
99962
86044
67577
68796
79950
1293
39140
63217
2553
43717
63220
87304
17019
4896
40290
83835
51707
95464
31295
63733
84888
84501
77785
21829
94726
72242
47854
70874
60072
6793
23056
97436
60232
41676
77413
22257
30662
99428
23159
43979
21492
29004
10595
83192
82216
33362
93929
24583
43263
8240
32414
59078
77674
97798
60141
24407
53790
36988
14475
56919
22818
16149
42045
60480
29011
19806
33498
5392
30941
28002
69498
62742
37062
99093
85650
6003
45136
86116
92911
26769
91012
66073
7307
91689
17716
21891
31979
75720
2586
17066
52428
9379
62285
45443
49661
31163
16565
99636
92437
53033
63402
43388
56171
39519
4442
43727
79143
5043
26072
79016
45294
2439
19904
87938
96996
5143
25784
27684
52268
1217
61967
20119
29651
15162
99396
88229
66350
2240
86122
57309
1779
16644
84001
44251
37108
73059
77677
89536
35875
94906
35951
16414
47238
13071
68343
49868
95235
20312
96860
23257
72230
21502
54374
13101
34584
12283
74203
69364
20030
82741
78305
88261
84181
51113
21131
57378
74807
9398
80833
10194
75343
61181
67974
85912
57567
27586
98936
21802
34879
60581
96644
75326
61481
82910
98284
51539
86802
29513
5245
34520
91884
14217
58382
91043
2818
99514
75829
24151
90042
42820
60666
16991
81650
54910
66887
35557
9252
28767
77992
81564
83721
78634
43614
90584
69413
84630
94298
7654
6466
90281
94550
33248
89717
44156
56756
55998
57961
98621
2046
90424
50559
62033
49314
52717
48763
98273
91193
5481
12019
68081
81945
14020
20042
47200
75771
63937
74492
48587
96510
93058
42744
50886
63696
15871
76112
10671
83249
43826
64400
64413
1531
15157
99892
87672
26570
36307
91431
79887
84356
10748
79307
20885
46501
18300
13084
13825
8287
97061
55569
53425
97149
62646
12651
82790
29201
39114
46187
17446
7684
51776
5312
7215
72777
47503
5286
41951
88530
13462
56926
4088
35753
57301
97640
89619
71952
68242
24223
8612
18952
93129
14705
66134
95722
45102
34367
28330
65532
21777
58863
10647
69963
91890
24626
73013
8325
45839
94555
54945
66586
41041
61827
7624
69590
4416
17185
84045
8197
43527
71395
58313
33358
79857
78261
43886
63566
43146
21241
62234
81015
60126
13068
17363
9589
77448
28703
96029
80666
93612
73074
93892
70276
2720
69384
69520
88919
40129
14525
62829
54102
9651
21106
71305
93205
46024
29675
60795
66306
6914
22212
58335
49147
9490
80516
4133
47723
19181
38220
4872
48203
54129
649
24441
67869
93472
58265
52662
21855
92510
8904
17586
97157
32673
79847
87835
62077
5247
72171
61559
97992
7343
63159
75387
76856
21942
43375
67628
98098
27189
57512
9797
93860
9622
75572
22958
95599
26443
58149
92037
25070
73136
69582
86450
95761
2972
85825
12128
22956
16555
31743
10755
19582
3042
47708
72299
58620
26787
83477
28388
94404
95436
90978
65605
96782
67246
69612
24997
22345
10014
59142
68687
26635
44000
95361
73635
9962
48249
32966
90193
8333
15809
86811
45054
91862
27719
77698
58510
29985
77387
18456
35092
42449
23816
74989
63096
80445
54047
36772
17814
68887
96447
87885
25813
72237
53311
54661
1157
44166
15815
9097
90888
15457
60609
74254
49810
39408
70522
53400
6024
77390
13465
54587
47167
25386
73956
50722
39168
8251
25600
4710
4073
57163
13954
43099
47887
2500
99194
76349
51323
85854
47474
81722
67945
33608
11691
4120
61203
99389
81818
98889
76737
56710
45189
47747
80806
86151
47721
51634
29350
83591
30016
76442
63399
60578
36717
43568
64464
57109
12384
25454
96205
39101
12656
56788
86823
81348
44331
14828
56094
32270
91122
920
27528
9612
44481
15635
41003
21156
96395
80628
55923
25599
48472
91597
67347
66273
86422
49986
85080
65218
45853
1642
24049
16781
31249
31922
14434
58277
73223
92416
44235
65401
37081
99765
61173
6245
99184
48134
53587
61699
1110
47510
95644
40986
75999
12758
86266
5181
21464
54353
3408
47690
41182
66965
17167
70440
98319
6954
56229
65178
10972
21469
40503
90089
1388
41475
12513
90945
60164
82607
70171
84924
33733
71933
78306
29050
96196
50507
95852
75622
54805
97374
30774
96442
56334
57483
35250
99592
60214
94905
7408
981
62911
13228
5026
52643
79453
68799
68484
71460
6470
29566
60863
81441
61224
64849
43057
96956
95837
3066
34828
74274
63386
92037
17104
22719
1882
6647
54050
90414
66510
47842
3379
83301
93988
37775
56840
52471
79308
6314
78700
84323
17720
51277
82552
30501
66958
64117
51299
23682
54133
91354
60901
77321
89549
65475
67923
9342
46702
46569
26664
80786
49770
60855
77329
84682
41778
17698
18118
78804
38277
39868
67872
4801
6724
99393
64417
69344
84629
78226
37497
30933
80096
6086
52176
16465
69477
36400
36835
51223
49129
56331
82491
79992
21706
29356
89267
4487
52317
71002
71180
4481
90304
49098
81365
56624
8651
26439
95844
84659
28312
34109
35366
80359
9636
78100
66038
58786
11860
40979
41907
47214
88149
5891
50152
22880
28363
61677
38912
39759
6891
34867
36110
96009
81768
23977
57039
32400
45506
73803
47444
78897
90094
76926
24905
21754
77098
79817
33452
29339
97879
20807
36539
48386
30307
439
98768
18274
82257
53527
55611
55248
56930
86550
62322
34809
95705
50104
23924
92161
5667
42680
75369
34563
23656
58213
72505
65865
38834
33368
47785
46551
83448
67235
31194
8610
75101
19157
67693
83347
84253
62971
97125
54021
83468
99366
78388
33085
2746
79649
35808
50328
37269
10741
30690
26972
14223
55863
76040
18816
48858
54932
81215
32414
15805
9130
29611
63141
72117
89573
90936
71387
11714
8044
95773
90807
30920
50660
10008
21736
51775
43813
75755
53564
99512
73171
33496
48625
30708
71701
21134
92473
16008
12200
47409
89191
37696
6172
65111
83887
7529
83586
86056
24297
88972
43181
40728
14256
59711
4482
81581
35402
84842
92306
13888
77878
22396
54967
42594
28210
94273
56800
61742
65327
50116
99437
34264
70999
84185
30067
48389
95929
68277
19287
96314
18037
86102
62314
88163
65229
98149
88509
91523
8826
39384
78008
92270
18244
38079
66214
42803
75237
23061
93602
11433
51239
33224
32540
25484
54882
47385
99086
46528
12710
15071
59253
1356
67554
26637
5276
67674
82363
28311
86355
11310
50643
35468
46208
58472
52320
40664
9598
13118
53543
34868
23711
70262
26627
60676
90984
65490
65645
18806
94201
7478
69842
67215
55448
24195
26752
85764
90963
75853
1122
93764
24593
71753
29862
72038
24328
98467
16035
30753
78612
8180
93201
77578
59401
34317
5489
70049
15209
70651
19349
29995
94299
71411
31897
38969
37712
78352
79288
68889
89318
49966
84962
85795
86036
22921
65986
40947
25304
20300
38717
48522
82680
79850
9943
11499
70280
5453
24208
46047
33748
27535
63367
42428
56043
36424
7846
3262
29248
77045
46941
44018
27203
96562
24940
43893
25281
16291
69443
90498
40652
97060
34585
58918
90758
72185
21677
49109
12481
15143
66517
33101
28682
4895
85677
16728
56337
60336
48539
71970
35827
96753
10285
45667
81516
19821
14336
70399
27541
27469
38884
40297
17231
79516
62620
96864
93812
79966
29242
37987
47619
3262
57035
7753
95196
67182
24027
96168
4247
47309
98648
33752
64217
46583
77941
27929
40007
92089
70669
21583
74724
23545
91762
52086
95051
71558
81566
18442
85848
66806
89277
81711
80296
88458
11562
75444
33540
27920
70080
35861
31865
60382
71647
47903
56990
55112
9478
2773
70855
855
65493
8454
5818
91815
59764
13046
85686
30504
67207
51887
93988
53416
88425
37506
36338
23440
80766
39218
7999
13012
70174
54887
56737
63643
88804
6994
19612
64816
25706
59420
35760
52978
73425
44123
27074
19146
24732
12633
16520
67279
45079
71460
33668
77362
83929
82966
96268
99778
6708
24416
53776
18024
52430
50112
78463
19917
71624
36567
38183
67800
87674
51013
80580
17198
10931
78833
68191
93510
39243
22758
72276
20249
3156
49921
41694
14689
11750
18506
77729
84449
21700
54494
93160
72059
99387
11858
45354
69645
95871
74126
67653
64460
14139
6428
38252
2092
22048
95516
66620
58254
45208
18950
71159
57333
60782
65620
56366
28383
82627
44926
92335
94013
44969
68282
18564
68361
78301
15863
94001
66309
66878
26118
92580
37909
92028
28445
25454
95050
6769
55966
84258
18849
73455
41051
29854
11467
91866
27476
21871
1521
9798
51503
55808
87944
16239
22216
8334
73967
88642
14400
14560
18189
79482
65060
46739
4068
28940
9925
8961
46429
63695
25133
85559
12195
58573
57760
86709
97349
24421
28518
15470
39024
13722
82778
69334
69853
46204
26956
39620
89192
86225
97141
45414
22247
63877
31816
37276
4702
81554
65955
22035
78466
93965
86835
71301
23745
54236
2014
23891
56660
35017
27696
48511
50080
47946
48123
79100
11216
36146
24646
58510
9989
61108
68944
86990
53136
10556
33723
17552
34184
16017
14341
16444
14048
52928
75005
19508
37836
10755
23467
22977
32025
85764
16624
37888
64919
68182
71081
75459
44478
40220
78859
27137
18770
50898
97732
25354
14275
50014
99190
12841
18780
89831
96116
88786
89248
3749
53006
25500
24307
5771
38552
51217
94023
43572
75829
1560
19611
81472
94184
87726
75047
11627
66397
64423
67883
81914
63459
16271
48922
36714
23593
77437
72165
42922
31592
18086
41866
96158
95695
76830
24970
21809
56898
19349
94365
83911
23484
630
2303
81818
68532
1884
286
47989
3242
20380
8786
56410
54550
46623
75931
22525
14469
47195
57957
17779
82644
80550
78805
26454
81448
93047
23285
30718
38665
23573
99043
15898
15359
98578
3631
19707
39189
95816
86928
58909
46152
12913
60799
78945
55212
888
6947
1614
94674
84147
23470
67823
82690
18370
10228
45649
99546
18555
76552
42150
90184
8035
84870
38048
94385
71132
55836
49420
62296
44848
57457
11512
41683
82595
5535
96750
25761
95902
19899
52866
56779
78073
92363
32916
82671
9866
74100
43053
88840
89117
77050
99846
97712
34071
57349
99391
52285
31693
30407
73815
80273
77511
33415
87131
65871
73360
38299
81488
12248
93725
11226
17820
96995
50585
83914
83648
77554
58736
86647
79654
12842
8051
43370
91490
31336
64355
39517
20826
39270
59867
54827
54917
15586
47916
97277
38656
26386
9808
71360
20708
5089
785
66539
86061
17932
17096
69539
80986
24904
26547
81327
53203
720
29579
79001
19231
68999
48538
20060
79575
71079
18955
94594
55848
2051
42839
24073
69406
69433
84483
81753
80412
46406
76625
85657
63341
57962
69421
90542
45535
87124
2743
45623
85585
37581
26880
29714
72103
41363
37679
45229
21139
79365
875
73788
51518
98966
60893
86135
38251
57251
12082
76320
29730
74550
46391
975
26140
85869
33920
51526
22107
65104
59395
83011
33165
96978
87621
27269
7406
55290
85016
41620
88186
57606
37916
87706
21974
25922
41511
42249
21890
71883
48297
83842
10788
76388
34173
69347
19209
35545
45278
47118
60171
55719
359
12978
43848
21159
16554
28215
38780
75930
23794
66236
10510
26048
34763
97924
59782
23307
2142
94002
750
60346
29012
46816
96350
85426
12345
12147
30959
96550
19844
20003
30132
81020
6854
11963
46355
9074
27854
20454
8256
45897
69462
13683
31428
47733
93679
66897
93789
53873
54198
60053
65976
6543
63983
82104
80680
4877
9436
2710
89520
747
1559
49869
4228
44272
26531
12801
31942
59407
28418
81828
38016
49167
59103
54380
86267
52189
86016
73529
290
86583
25098
80986
30092
67585
74950
52588
20476
27518
27326
71707
60808
89101
1833
62194
40217
47273
94939
29937
35547
57808
12832
19117
3593
17076
13763
74336
70836
34689
62185
87797
41272
20160
82474
28187
52396
76436
10640
98348
18865
22819
86978
39177
99133
50573
5751
19896
34427
23494
80546
56000
18591
76215
28088
49489
2693
4662
30837
71187
78703
15317
63055
87826
81652
80195
1074
14314
8755
25351
74908
25769
86965
41048
22943
14842
42407
777
82572
99695
60835
76512
77730
65599
90389
89653
64172
27514
7803
3315
59070
82665
98418
35407
28919
67409
36004
10694
49991
1243
69508
6544
36181
329
87743
57319
57490
57914
86682
74765
55733
71314
47075
31411
83658
82151
96867
33759
34243
70499
37971
99480
57105
31899
62053
97117
85424
46421
17111
11606
21349
47100
10911
41455
76777
21135
43880
20454
59532
53553
89810
58049
77737
64210
63885
28525
48923
15394
27079
98337
72394
91737
43347
67994
79721
90398
22738
81904
62187
15802
24343
27776
59996
46215
87849
15598
68279
70005
70664
34653
32790
85810
45910
45490
69172
32864
70607
91017
65606
53484
54528
21204
59683
27546
50888
31005
54089
51767
14465
81149
47754
85610
78406
31393
26660
96612
87759
97722
55031
2055
82729
18298
74107
62922
90728
16591
11124
90661
82712
76019
4565
14064
44203
90140
87947
59426
20430
36913
96451
70984
65699
64263
58263
89330
53723
83332
89310
60213
26305
36897
51437
30111
26361
57066
34660
17718
1108
550
34035
27692
36181
27149
95648
31631
37299
89172
69237
90659
77289
31746
24377
55960
54137
32957
13748
63169
15334
25841
98464
44012
7022
12877
22821
42042
18005
15640
70969
80381
48319
19484
7542
3962
54082
43207
47466
84663
27980
88157
403
24963
39516
68600
35229
83867
77043
30603
70492
33698
83756
95694
60910
94246
1433
18045
63826
7301
49613
35931
1826
21589
23972
35843
73533
94048
23457
68969
60307
29966
585
81301
87213
5371
44226
14124
76183
95335
91903
76572
86055
18591
77732
64179
45922
20122
77128
37998
96602
50815
82393
86387
39002
57357
58969
27445
78703
93422
39370
44699
97983
18358
62296
31305
21929
87322
82986
40560
67111
9647
43569
78949
12393
93726
41420
95501
940
51705
10565
15180
66985
18987
59257
94973
65327
442
13919
75421
49564
44292
34495
86429
2428
37370
90735
49225
47969
71366
58926
73803
37265
47705
90445
68685
3765
74745
20385
29559
73017
69052
31952
67130
62834
32223
43800
15778
43751
39372
53687
64337
7762
60890
82007
31220
29386
27011
73962
39051
13513
960
26941
25032
13730
25820
79455
94172
69024
98419
65434
30745
27337
97598
77680
67114
98664
16848
29566
49050
68671
26914
43240
97150
7216
9633
34607
6167
35751
57313
11849
15107
52085
54496
29354
29567
98509
69403
6697
10507
39866
25276
17365
80949
4573
33904
32449
93458
5581
23202
3840
95410
58698
95896
17760
46145
24611
56814
43105
66597
98128
10928
22535
50802
59996
67816
1146
30226
85452
53047
6960
59946
33961
14186
7649
99691
79829
16559
35343
17065
90491
79049
86639
41053
53352
53983
36221
9896
30176
71888
77289
85833
15442
84124
59846
3482
88310
59334
78878
36802
2004
71463
11060
27324
72976
55603
52240
27982
24410
13485
53192
82219
96014
92335
44148
71039
43915
71336
25974
29572
85794
64809
43869
74040
84635
58806
48400
45088
72605
34832
82552
81058
769
11051
73321
57192
33802
35136
2809
61788
16590
10151
97611
65595
19965
15587
62068
89144
44163
14789
73238
92838
50256
84301
92216
36666
38248
55831
13558
88129
81620
86087
87750
99950
50943
25423
38925
79220
44709
15212
32649
73568
41596
23604
82969
28832
72344
31119
52805
17262
24493
91787
86164
71265
54425
10240
18876
57328
54588
72487
48541
6045
3389
53502
85025
9151
53127
24621
83930
50728
35759
33771
96370
75054
78190
36101
15465
37127
54061
2154
95031
94315
28313
64169
28239
94220
53356
62868
3120
47725
45183
69351
44580
39885
37580
33483
56377
40245
19983
68567
73487
80969
38732
17439
70890
23343
44628
15193
13112
60149
26316
64847
55474
13833
65443
1033
97919
44245
56506
28005
73885
56223
57108
86426
71971
27739
93128
69567
96100
82586
66212
32693
56496
16465
58937
16158
57853
90470
67703
59945
34660
63585
15111
88216
80903
53134
93844
60479
22409
51434
41862
90392
19491
47120
86313
83877
53166
99085
64251
24178
15819
57175
81808
22074
83345
54640
52413
60430
21163
30009
92862
11386
5065
47772
13562
55356
20480
33539
5172
24134
22655
76339
27277
88000
13045
44041
6007
10732
72108
87341
52411
41243
37086
51638
89918
44777
9998
98301
60655
54761
39358
35237
7198
84048
68521
35302
44866
78746
12965
49879
21015
60695
99754
17744
68653
7592
61009
35613
64009
5544
12140
56042
65524
42424
67370
27701
615
24850
62720
33332
4590
39712
44483
4561
37549
30443
68044
73640
77641
88191
46782
56465
78262
12814
29114
52334
5030
72781
47459
51348
85909
54320
67800
88049
58126
24305
76661
16911
17498
34697
40236
22617
39559
76501
23407
75940
82217
21845
71929
36281
30004
37190
31976
38726
12042
80977
58720
76549
14496
69260
55633
11980
34635
69408
82897
51602
57480
20320
7425
32842
4422
24731
38228
96375
26663
58184
51517
75060
87016
45044
1046
59573
94298
57402
91901
10420
89315
4489
64804
20047
56630
7639
54691
35677
84748
19365
76007
41782
84167
69513
80378
3397
44233
80904
11590
61694
24756
48943
47333
2645
11786
72472
60252
90163
55946
57752
61641
80944
55682
94766
27388
41360
84163
60675
19585
1933
35547
78894
63273
11535
1485
2976
48289
59533
43266
15958
44040
9712
31741
84963
78092
28293
53431
22696
91506
39571
1885
80650
93768
58922
57366
5056
93368
12338
38681
48330
83333
64660
58939
91454
84207
39196
73614
6566
83499
89663
32477
62319
7668
86080
35164
10256
26153
86783
5437
7736
62277
42850
91855
38730
13709
3186
69008
47658
88883
59084
44234
77790
67504
21717
25880
64248
45325
65498
80372
71229
84360
22921
57624
55885
7626
92249
65665
60655
25237
74499
43077
30282
56799
46906
77574
46045
83002
82844
65508
37700
76204
40989
70327
22858
10776
52655
84293
99640
94062
75797
28993
75832
41939
91736
11263
98109
48967
87326
10801
18350
63720
71246
81713
47239
86085
57325
9509
51704
81350
58234
42618
13212
28477
11304
47809
13507
72671
89558
72710
80166
69551
50309
26219
74157
75648
403
65495
78909
16037
50766
15833
42728
29020
84365
29369
63772
7321
43107
16972
58376
42724
55728
19848
92201
88492
5349
2396
1101
51839
86928
68072
8469
27704
9598
73525
41717
64214
72265
4463
78055
71280
18602
23688
92133
49043
99598
75116
33940
60880
98989
85837
9414
41282
1114
11227
30474
10934
12834
7106
20607
32836
27470
35043
59971
13307
45864
40114
91851
49237
98562
58266
56655
28791
72092
66470
41174
53211
35601
10558
54418
7357
53425
50426
62434
4056
71363
65777
3473
90163
58304
19393
34627
18800
45066
93576
77243
89761
76972
62779
6305
92640
49620
28590
23886
74464
34510
38447
14109
14472
97324
53783
6365
44511
73715
88033
21552
32234
82895
41362
81426
97032
53737
76338
91687
59654
88322
76255
63334
68642
17634
53752
13356
17068
18690
7576
28226
29897
57119
26134
46976
27499
53903
69992
55471
19097
80450
68281
40498
10771
6227
52464
14855
86731
2810
62681
12332
54999
43906
43475
86639
76613
33260
88868
6194
72529
84704
25620
31554
34120
91863
27623
33659
57589
88896
42183
42126
33944
71355
90022
65553
41031
42371
65890
58543
87489
60747
29362
2393
85929
83661
39837
63043
29217
39074
37801
89690
84792
50809
68209
41633
15755
67294
97972
97700
50706
65867
88182
65016
45633
62214
23698
13156
725
51411
21054
64051
14117
56490
61946
8428
55280
91695
95974
49682
3378
15767
47378
13237
59927
81643
98448
38386
39142
47926
89442
20068
21411
28773
44565
16476
10284
44210
99359
56237
87295
65309
58508
20018
85261
38852
79362
52028
28149
1482
13735
28920
98837
66003
88337
75832
86691
25164
48055
38806
52489
14856
27766
84804
82357
28805
74259
50130
94636
57877
35031
23570
18033
