9527
4051
2447
2329
8026
6069
7116
9857
814
7899
9727
6872
6054
6930
8760
7067
6997
8699
405
7624
863
2115
5088
1421
865
6243
1844
9495
1457
1198
9971
3633
5518
2813
3802
6838
8582
5931
4232
3473
6106
3818
2585
8188
7452
5594
346
8831
3601
1318
6240
2756
2522
3465
2875
2756
5634
5601
6894
9213
2129
3523
2911
5
5671
7701
9114
63
1813
381
7611
3573
1399
3874
7764
9203
3853
2206
3392
3095
3974
9685
2346
5081
1850
8004
4908
1085
4661
2936
5297
5384
5289
945
1339
8218
9207
5596
3026
7789
959
4124
9547
5304
5406
5863
5152
8624
9518
2017
6850
5733
1720
101
3954
925
7488
1083
4910
1426
5470
6314
2353
7688
3988
1903
33
8288
2309
3724
3299
632
9218
8665
4306
7632
9661
3488
4222
5020
5599
9785
2487
9181
419
288
5175
5895
7247
605
5263
4698
2850
6814
7522
5989
7384
9752
3272
795
4600
2745
152
3129
8374
6984
6447
4509
1314
1715
1117
1317
2303
5009
9122
7897
75
6398
7160
7373
7448
4141
1748
8638
9811
9410
1976
8325
3995
9886
1039
503
8447
3049
8558
7521
5865
7752
314
3909
362
8652
7375
4581
2721
671
2378
3717
2042
4077
5232
9174
280
9995
1432
2401
3714
7227
6764
4958
5269
99
6196
7619
3476
6388
167
9741
9350
8976
68
8936
3858
7311
5621
2818
8367
9431
5417
1636
5987
6676
4658
1288
4936
3351
5290
7647
9786
647
9040
6384
94
6869
4791
7159
6482
1244
6072
1443
5890
3398
5968
5146
6769
7767
7306
6998
8821
8171
5158
2190
8458
2659
3953
5584
7569
4120
2334
7632
9829
7954
1280
5895
3921
1285
7351
2263
3240
2523
4774
2718
1960
1241
2955
7859
2120
6396
3646
1007
1023
948
8954
5423
9161
3083
7722
494
1077
4545
5483
2604
6256
7199
6096
1936
3553
3864
4912
4606
7921
8321
5192
3877
3152
2154
5
9832
4654
8611
5662
4312
6844
8736
1003
4813
821
6965
9457
6257
2318
1032
6287
6225
2633
4637
4144
4381
8294
1742
5577
7830
7504
4127
2707
2391
6295
3761
5035
901
9636
6186
9468
9533
6873
1181
9542
1408
2318
4340
3019
1837
7909
1768
3607
6272
385
7807
727
2631
9228
3204
3224
9574
4249
6042
4938
4135
6993
1928
3426
8887
9669
9555
8472
7019
8290
3856
3650
4374
963
1952
2097
6413
6304
7278
407
4221
8703
8038
6711
7193
7966
5772
722
4397
9062
4348
5625
3065
8328
5815
8176
2548
3226
116
5333
8573
4639
2808
6313
8613
8039
420
4588
7091
1864
6362
7613
7672
8691
780
8709
9219
8900
4324
8755
7279
9337
188
7386
7328
5335
7578
8138
1168
1206
521
3929
972
2735
5130
5874
7174
5680
9078
8193
5883
631
46
6225
1
9233
6686
6365
1720
7863
4691
1435
7246
9337
6826
16
7847
5198
7709
8077
3020
5022
2254
4884
8691
5655
7322
6396
5821
123
6622
4162
1395
785
6715
7460
1900
9767
5278
5020
2586
349
8341
3406
9554
2919
7558
1771
7994
4432
1766
8002
5717
9653
9091
8042
2525
9272
8541
2838
2119
9479
8974
2476
6215
1031
459
7983
8962
5166
994
9948
3484
8938
8257
2849
6080
4818
5255
783
6607
8006
2992
807
4826
7736
4976
1461
118
9708
5745
1998
4056
6819
2307
2669
3608
4378
8626
3331
155
6072
2239
6979
2786
4739
2788
5979
181
527
2680
984
2400
1641
8246
4328
5017
5532
1619
5600
2597
7524
999
6257
1426
7394
8695
9429
9016
4893
339
3094
4597
7364
9672
638
6887
7619
8379
4470
7960
7144
415
3495
1604
6608
9631
1310
102
6463
9407
2231
3218
8242
5258
5576
4428
9070
8826
7901
7958
8628
4301
2073
5945
5943
7881
1322
5953
7743
237
851
9421
9903
8935
1331
7406
459
3387
5981
1415
1739
5017
8012
8008
8058
4490
8665
3300
7583
8183
1545
7768
8340
4804
2605
4145
6724
9928
1793
5301
4765
8426
6432
7650
3127
4911
9505
9560
5219
6125
5985
6672
6460
7257
3994
4200
2632
8334
3714
4829
9187
8596
2372
4127
2973
9922
1555
3032
1365
717
8300
3233
4586
3989
6757
3589
293
6500
8493
1670
9389
4236
9585
2732
2727
2579
1852
2208
4397
1266
8445
4627
5754
5506
3740
5043
3518
5474
5327
3734
2931
1953
3309
8096
8908
8112
3991
321
5980
2577
2696
4084
8136
7117
812
3067
6428
7373
7534
9600
2439
8431
9804
4434
9067
4025
912
9453
7752
7922
67
9638
3753
5150
8829
8766
6023
381
3874
236
2358
6206
6277
9362
7130
9163
1188
57
2280
9484
9079
785
5962
2002
903
3777
559
8060
9356
6862
7445
6438
9805
3608
2885
4145
9634
8672
9212
6346
2260
6772
8230
8833
8941
3086
8592
5497
317
6886
265
9102
2410
1213
7493
784
5930
1679
1291
5622
1147
6191
3519
1651
4470
716
1447
4992
7503
847
7338
6916
7971
5886
553
7088
4368
320
3221
8500
4632
98
7334
7539
3216
5594
6211
8559
9830
4378
6840
8834
1292
4208
7683
9296
8646
6617
5203
2091
4424
7473
8432
7246
3549
7895
7925
7944
6348
4308
8616
8758
805
6360
7557
1389
9243
6554
6667
5809
8708
9733
2283
517
2540
9320
1455
4735
9943
2964
3961
6181
235
8853
978
6873
551
274
3829
2458
718
6436
765
6527
8869
138
3698
6940
4206
3428
4435
9477
7580
576
3832
6203
2183
5970
3216
2126
106
7776
8096
4817
5661
3337
7339
308
6542
1664
43
9137
4298
2764
61
4439
2688
165
8630
700
8038
6555
8923
2164
3696
8887
9964
475
4083
5729
3093
2386
9163
1626
7796
8050
5228
3519
8375
8853
1101
4382
1940
7984
7010
1467
5223
5607
8789
416
2490
3127
4017
6997
30
6898
4659
2807
5838
8825
9350
9782
7091
3750
2798
2354
2575
4456
4345
5720
2997
2122
1088
2047
3637
4214
8020
5317
6147
4093
6302
2066
5818
9815
5180
8243
3273
9078
2464
3748
5799
9615
4013
3542
6086
2189
3512
7140
2864
6905
9
4241
211
4885
5910
5781
4928
8290
8977
8341
1048
3837
8629
3774
7214
2838
2629
7121
2841
7893
3138
764
907
1889
7363
2663
4853
365
5524
9994
7443
9208
7488
5726
8026
1135
9788
5216
1963
5827
6973
1150
225
6558
860
8014
5484
281
60
7609
9783
8935
1381
2698
4070
9028
3230
4709
8758
8579
842
1363
3244
291
2050
5967
2754
2035
4075
4005
6211
238
3148
9211
6750
8415
3724
5685
2753
6088
9070
6101
2446
1530
447
5022
759
1635
7197
1174
6732
1099
3921
8673
7953
1663
278
2632
4511
7328
4061
9007
9205
8657
8547
5341
1518
7833
2278
7911
32
3648
6699
4139
7941
9425
3011
4040
2110
5543
1676
5860
2769
8267
5274
4295
6714
7205
9455
6815
5137
4437
7778
2408
6233
5038
4023
4438
9209
6615
7976
5574
6336
9825
6713
1515
5133
9904
2987
3550
7307
1536
3093
8429
3038
3996
3064
2387
4774
254
6018
8893
5301
8503
5412
1188
3285
2518
7703
1698
2317
6644
5661
6378
8522
715
756
4079
8369
4419
4818
6993
8131
1583
379
1764
1324
1467
2662
2229
3429
5921
1757
6724
4213
9906
2267
4394
3246
9576
2539
349
8686
1010
3197
342
7014
7264
2302
947
1111
7501
6171
7739
7378
9623
8482
6982
3856
3888
3083
9475
2645
8722
3436
580
1660
3238
6575
6593
1303
6759
499
4462
9845
9886
7567
7337
4600
7817
6453
7505
1829
7272
668
2432
9906
9352
5529
722
1974
9716
9686
609
3816
4147
4425
5833
1658
1447
7529
1903
1317
3745
3361
6307
8322
4265
1224
4193
5301
9329
1839
6360
1767
2546
950
996
462
7567
6806
7064
4640
6373
5601
2289
2322
7109
95
4642
7351
1132
1844
362
7061
8594
4522
4936
6344
6602
8825
1079
6986
9865
2795
8627
3420
7715
861
1218
3699
696
6179
5096
804
1398
8082
7709
8989
3238
8636
1106
7638
5798
5085
5756
1264
6777
5366
7504
639
5381
2402
7995
8978
9414
5586
9395
4514
3159
4555
1110
2942
402
3962
7906
8454
1586
2941
703
9396
7692
4253
7296
2309
4949
1752
6591
2175
272
1681
9766
7332
8891
1982
7375
1749
9412
2650
2348
6903
5613
1617
9118
4172
5074
3265
6081
7828
197
7446
3364
2347
8960
7628
641
7569
2556
3076
9224
6277
5136
1542
4798
7391
598
875
4332
4439
7966
4910
6326
5284
8297
3015
2906
7909
4637
3082
6280
765
8350
8275
761
3818
9484
9526
3945
1882
6059
4512
5602
172
828
972
1189
4364
4053
1471
3938
4209
1257
7342
8034
2985
3568
2125
4004
9466
435
2481
957
9713
6182
2166
7502
4174
1686
4422
6015
1744
7742
5972
1570
7034
408
1910
511
1035
1245
1587
1760
4769
7361
1407
9363
1903
1988
2277
5285
7005
7770
1439
6795
6
2161
7668
2806
6674
1532
9224
49
2237
2279
427
1261
7320
5725
9476
8148
9605
2366
4169
9086
3860
3233
7901
9835
3244
2310
1244
1268
7664
1982
1836
9061
1553
6799
2393
4453
3798
276
8623
1083
9228
1965
5579
48
4872
9350
7411
8306
9000
4440
5930
1341
5925
9136
241
3704
1867
1609
1645
8585
5889
5580
8887
2836
5656
7541
9908
4355
185
7258
4306
6765
5877
72
311
4745
3706
9503
6225
8843
2083
9845
3056
3629
2243
6353
7784
5245
2953
7954
4323
5958
3937
4936
7428
8834
3080
5611
1323
8950
6959
3958
7011
900
8934
8624
9707
1669
8228
9968
3491
3431
9175
1231
7846
1749
3993
2370
9168
6914
6649
4924
7784
9746
4998
7005
9916
2338
6369
4701
3228
4920
362
3842
2618
5322
177
7582
489
933
5563
8658
9879
5003
1478
8859
4949
8728
1337
8767
2238
9928
5029
6014
3899
3794
8334
4503
5497
5094
8405
1798
4117
4345
9224
8910
8347
5479
2871
3492
6471
1808
1838
6109
4628
8157
6642
8909
2013
7942
9349
5708
1008
4473
3676
5092
4987
2166
2327
238
866
7880
933
3374
9809
1038
325
7875
850
3852
3110
6635
1199
7958
7997
6060
7250
4985
6641
2723
3571
1144
5382
7862
1253
2988
7010
1726
4149
3142
6853
8182
6052
7435
71
6115
1594
6509
3120
7800
2193
7506
714
719
2255
5854
6421
5717
8815
5162
9488
5668
4172
5985
2142
5687
1166
3074
3588
7686
5777
4842
6632
583
8186
6340
3379
5808
7504
8368
2194
1173
7931
9781
3604
7873
7981
6232
9449
5503
6793
3864
7689
6162
5237
65
4920
8582
7007
9390
323
9956
5395
987
6722
2544
9937
7594
239
8368
4113
7463
7162
190
8948
9638
17
6928
4309
2705
5526
5336
8887
8310
3255
9486
8628
2629
5324
4980
73
3110
937
891
5017
4985
5127
255
7054
5089
6984
4139
5234
5037
9047
4285
3639
5104
1380
5572
5216
3195
1928
2717
7225
6013
3137
9884
4120
8460
8282
7057
6330
3775
9236
4967
6482
3441
425
1917
2028
2851
7801
6210
6610
7677
5811
8050
4258
8321
9298
316
3964
2057
4212
4915
5539
4888
3163
536
6349
2692
15
7874
7941
6504
6538
112
342
2280
5538
8380
8111
5211
38
2187
7077
9066
9249
5978
1261
4386
6865
6010
7373
4158
4867
8569
2707
4606
7342
440
697
92
7359
9208
9060
7372
4856
3633
2798
6523
2830
2917
8198
9267
5002
2552
2931
6312
5165
27
9494
2987
7061
3011
1028
3791
1169
2611
7914
3717
3294
3155
4844
2561
3753
8657
9817
1130
4852
7358
460
1618
5085
6820
9540
8506
8799
7620
5985
3081
6796
8872
6383
9931
2713
3751
2940
3150
2184
4553
2341
1920
6623
5543
7915
9616
4869
9513
8174
2800
9549
6709
8552
918
5938
67
1348
8918
4650
6308
2643
19
9914
7158
9661
3487
8180
2225
2805
960
5460
5888
8057
5827
1640
3117
6884
4070
8579
2167
7258
8379
1222
2347
3369
2552
4944
6252
2283
946
8217
838
1339
6172
3273
3425
7769
5126
3889
5765
4752
4746
127
3978
5423
2915
1624
6446
5610
2532
371
6519
4606
8268
4577
3557
9692
4482
4283
8191
4843
3260
1886
1531
9421
3824
4639
1479
1222
936
5454
9768
5324
6623
1705
581
3515
4262
8652
3140
8945
2512
3728
4157
5035
2960
3823
9778
473
7361
6789
3509
6287
4777
8353
1232
7988
6555
5375
4051
4416
3462
1836
8697
5876
2386
7924
3965
9819
5263
3909
9377
1606
3827
7578
9949
80
8976
6566
3567
8817
9048
3154
5342
6352
3766
7866
2830
4817
5407
1945
9369
6049
5508
1071
1889
1658
517
6125
94
1591
8965
3636
2163
1773
8732
302
4528
3244
1282
8427
350
3140
7674
3334
8374
9509
8491
4247
487
616
5513
5628
7530
9313
95
569
1735
1999
7661
9111
7647
2736
5764
549
8879
7519
1985
1648
2539
5845
5611
4579
4879
5787
8789
5524
2448
6286
6226
7980
8957
4439
313
3718
9753
5911
803
8764
3856
7093
4662
8521
7381
7857
6440
9863
5976
75
5865
2409
7555
6036
924
6024
2720
8719
3890
7743
7082
564
2121
7662
9483
5926
2674
2008
239
518
7638
2146
7509
4284
7673
6169
3420
3808
2991
6366
2139
4865
7278
7092
3258
4599
4146
4105
5740
5490
2447
3700
2836
8378
3454
6326
9380
3588
5603
9021
1018
4288
1662
5068
6671
6875
3626
9961
4885
6806
2112
3181
9002
9604
838
8160
4366
7739
2096
8490
1218
9684
609
4521
5827
6667
7726
1208
8010
1505
9766
6495
8161
4337
2132
2883
774
6756
4283
303
1974
2185
1493
8927
4749
3351
5123
9768
5657
4303
2214
4897
7077
5975
7944
2032
54
9779
3874
4314
9765
4603
3249
1276
8007
7836
4019
1287
6768
950
8977
5019
596
9872
2258
2955
8162
7090
9774
5685
3535
4536
1579
269
3843
6417
9085
8599
5207
5448
672
1189
6208
7072
834
4210
9266
9981
7288
2320
7017
6142
191
9543
3518
7228
9328
316
5659
4849
3184
6231
6297
9674
16
6865
3328
1646
7262
992
8431
7212
7796
3603
8599
6430
848
8466
2013
2805
6931
7282
1050
3832
9049
7620
4204
837
5158
614
7730
1303
2631
3663
6551
3914
2272
8616
3893
4542
6871
4926
7014
3407
742
8037
9616
3292
3564
7158
4321
4536
7854
5395
9609
485
1299
2962
7374
6079
9596
9696
9337
3601
1985
8431
3110
5656
4849
7481
7092
5848
9000
4918
8714
9746
7983
3687
6591
8933
7840
5363
3412
9135
3488
6561
9925
2597
7674
3640
7790
3619
9528
5947
3985
178
2918
9327
4068
5181
3867
5671
3944
6962
4389
9035
6964
7627
4135
3347
987
8329
8353
5275
2449
679
3481
8339
7116
174
5836
3101
2309
3774
9349
4421
1949
4090
9065
1813
8058
587
6982
8427
3448
2114
935
9888
2988
8753
3697
6275
4874
4934
6930
3899
3083
9122
7043
9909
7980
8959
9851
2338
8721
5026
1979
1891
7244
6294
5191
7643
4839
6204
9631
8085
9555
2720
3528
4178
6695
2610
4267
6718
169
7275
597
9884
7177
4197
2181
2080
7175
9541
6654
1065
6942
7076
5892
6938
1565
345
3698
6967
2495
9843
3177
3022
8177
6248
7599
3146
9703
465
714
3954
9902
1194
9233
9498
888
6180
7113
3457
1057
19
7917
5881
4362
4853
7700
6963
8213
3838
7447
6991
215
3158
1046
8566
7960
5461
2511
8355
738
7342
8201
3621
746
3650
8502
1190
33
7570
6597
3425
5734
8978
8673
7321
9589
7470
188
7936
2592
3133
1361
5446
3782
5570
2729
9448
3076
3917
5642
719
7795
7898
7056
7677
5141
899
4123
4342
8575
106
1959
8120
1384
1196
2216
2195
7755
2554
86
666
3465
2174
7069
4382
3012
7287
8237
6099
2125
9836
4532
6781
1577
530
6745
9660
3386
674
4102
2655
952
8160
2934
8810
5057
9266
7211
4440
3055
3692
3759
431
1908
2773
9896
6309
2231
1264
9822
1096
3004
2189
7307
7010
9760
7003
6036
6644
5860
3844
3511
4886
860
3922
1327
4306
2068
9796
8700
6163
5097
2485
8894
4546
7617
1463
2896
3007
3627
3437
9458
667
1144
8300
2598
3206
9812
5285
9867
7670
4839
9259
3801
9331
5979
3006
4370
507
5550
7969
3864
3758
3268
7083
9525
4857
7733
3802
4492
4915
5335
5449
409
8792
9563
5483
7337
8890
7525
8620
5166
4521
3222
9610
323
3362
873
7192
9975
6486
4067
4150
2177
5104
7169
8729
7107
9552
794
8641
5347
8636
7616
5122
5248
816
6977
4165
3539
7099
8797
6576
7953
6427
8945
944
9314
3015
3223
9570
8741
9273
8419
4646
6417
9676
6737
8701
8660
6787
7408
5533
5930
8456
3283
8431
7810
1660
8737
4767
9521
9826
9891
4940
2155
8696
5455
5310
6293
3441
189
3517
6299
4164
9878
5120
9727
5584
637
9346
1438
2372
5653
3908
9142
384
1180
2694
7402
3797
9998
4860
8025
235
3727
7078
9347
1008
3870
1358
1499
3316
5743
2385
6430
5404
9674
9588
9462
6215
7102
6008
4759
1096
9032
2302
3013
8903
7853
2288
667
6551
7899
358
734
5395
3294
3956
4135
5339
6968
5927
9401
6013
5300
2180
9878
8431
7696
3343
1457
8740
2958
1431
9279
5315
3854
9037
402
2439
8185
5287
8332
4106
37
145
5522
8571
3761
1673
7183
4137
5272
1901
9237
7671
4264
3036
5058
3539
4347
7797
224
4131
5074
4862
9130
121
7554
6476
1256
9057
2861
863
7440
7406
8713
3760
9479
9908
287
6507
8582
8723
3130
760
1665
3933
4013
3275
4762
5583
1837
3919
7877
5578
8888
8158
7124
1052
6908
4000
3327
4384
8301
8024
251
9565
487
1659
4505
407
847
5149
7813
4260
5735
8797
5109
1713
1296
9039
9704
4608
7321
6293
9061
8815
962
2201
9519
7576
8441
458
4585
3085
9108
2134
5985
990
4166
3142
5711
6525
2402
5620
2729
8860
948
3709
2018
5107
4709
4985
7104
3693
3019
5759
6109
458
4915
1704
4745
7725
9441
4322
5215
1679
4593
5935
4060
7308
5353
1234
619
3465
413
8888
9466
8024
8110
2924
9354
8725
5848
9586
1424
2254
757
417
7689
12
4540
3554
4807
4668
2546
5364
2961
3872
5230
5479
1600
2374
7210
9101
315
4896
9370
9158
2187
3092
3256
5459
9867
8484
1659
7858
9724
497
2365
7796
8773
6146
4942
530
4570
7089
8347
8141
5098
2338
460
6611
4951
9243
401
6096
8443
3505
3191
3162
4400
8964
5333
3354
7076
3608
3830
2407
1633
1415
8662
7371
6231
3224
6660
7327
5516
7025
537
5558
3863
8839
5876
6732
8933
2318
9907
6159
3311
614
1256
1508
9085
8432
5021
3233
9745
1349
7912
7509
5724
5979
9391
1770
1808
3902
5175
9303
9343
2067
3663
1069
2279
172
3337
6617
6283
9938
5805
4948
2269
9871
9950
6208
1213
7321
8318
2424
3117
8583
6539
9825
5096
5539
2260
223
6360
3177
5404
6874
8438
2675
1545
9523
5600
145
8626
2453
2224
6143
1757
2070
6686
5799
2079
315
751
1988
4665
8687
1192
5220
1212
1826
6890
5021
5245
3425
8148
6458
5360
4086
4879
6267
7353
8342
4738
9450
669
3048
7965
1308
5719
8532
5780
1107
8689
3632
39
702
2311
2516
5005
9056
3872
2338
8464
309
894
8464
2464
1034
5227
4766
7446
3520
7431
4343
5935
8051
9493
5120
8170
5341
9429
7520
5766
6090
6067
2557
8536
5351
8741
3057
1938
1488
5791
2453
1422
139
7153
4666
3341
2227
7371
8562
6516
455
7973
7789
518
7052
2684
2328
700
8532
9557
4723
6583
9851
1340
3680
1212
988
1732
4421
2019
1519
1953
3468
9853
6877
1970
470
9644
9297
5377
1285
3766
1499
9648
5360
3258
9087
860
7338
8400
3745
267
5600
3328
8044
2515
5941
25
9482
3567
4449
1369
5752
8212
9854
2044
8166
973
9921
4841
3272
9845
8328
8862
6237
6547
1447
726
2111
2852
8334
8469
6745
975
2768
533
3154
6262
4499
5370
6708
9530
8796
6850
7323
9746
1904
7421
6401
6678
4283
2409
9004
2591
5282
5487
1291
6268
8902
1541
6108
6313
9250
610
2761
2947
7500
2826
2961
6579
1185
1565
1347
8430
3361
7771
5351
4370
5282
2828
1679
4401
4570
3910
8514
695
8246
4493
5393
3630
3084
9271
2861
5444
5685
2793
1000
6410
3939
1065
1820
9938
33
2767
9325
9355
5832
1985
4190
5147
8265
8522
4256
2769
6186
1848
5947
8177
2290
2932
252
3053
2160
8812
2559
9533
220
8699
6910
6138
1626
7131
5431
6280
499
4492
2013
1382
3279
1614
4377
6757
4375
8382
8653
4764
7632
9163
392
7532
2324
2764
6751
321
257
881
390
2326
6954
8557
5527
9515
3688
6396
3333
4376
9087
5974
2380
5333
3217
2560
6601
1996
7861
4019
413
5049
3928
522
6438
5272
717
3076
5012
3542
1563
4977
8450
5091
1506
5014
9970
7206
8569
594
1835
4077
6743
7127
5625
4730
9137
974
5321
7083
9065
5264
891
2506
2187
2706
4433
5206
7876
4540
1171
6482
3228
7494
1309
9636
5841
8173
3456
1178
4674
668
1123
7410
8758
8001
6079
5831
320
108
764
8058
8000
8077
4522
5194
7760
4883
2159
928
6152
9967
6908
228
8963
4106
1175
2223
7433
9470
3827
8244
9311
5458
9806
6564
2647
5233
6737
5018
9953
1049
4634
1008
890
2309
3578
2010
4420
3869
1097
8876
1166
3252
7901
6414
3383
3831
3603
2366
9695
814
4673
4587
5647
2449
6356
421
1841
8611
8349
8233
5625
1336
6622
9822
5125
8837
4904
8775
4241
5913
1043
4727
9004
4547
8660
3877
5156
2372
868
7073
707
9682
6650
6091
6008
4850
9902
5354
4788
7082
9114
4323
6011
9665
24
8370
8629
5876
6903
6344
9035
6709
2318
4512
3482
196
4423
120
4493
4225
7897
1494
9571
1843
1187
545
3172
4818
2147
339
9176
9524
2362
7767
8563
5086
764
8407
8311
1277
6076
9801
3110
1822
5929
5474
6130
7095
82
8957
8463
8217
3051
6707
315
2351
1711
3301
7666
9489
9099
7399
5309
3109
8192
6326
3325
575
952
7448
2583
6422
2242
9459
1152
6044
3810
2835
8813
949
2416
2348
6315
92
7270
8308
3806
8143
3177
3618
2483
801
5591
5904
7197
7319
2197
4352
1033
9766
8830
5923
9763
4943
2428
4993
9305
942
7682
91
629
7734
6155
6375
1055
1599
4205
4154
3432
9756
5608
9931
1612
4514
370
9760
1609
7912
303
4677
6821
2942
5330
5148
2657
6043
1898
6392
6899
9436
1459
6353
3080
9929
2822
9425
5629
8842
548
7407
98
833
9831
9937
5513
2115
806
8412
6601
5054
8691
1888
212
5718
920
9693
2073
5066
3241
8208
7555
342
926
6761
6887
8828
9218
4317
4506
1008
1589
9189
6515
8829
1220
7531
4836
3565
4429
5222
4710
9708
7714
1486
2826
9105
9729
7607
148
1339
1797
7918
1363
1816
538
7990
7969
1407
4538
5236
738
5871
6245
1083
2624
5856
9953
2318
143
4247
2301
7055
8686
8159
4183
1800
5934
6142
3666
8275
9694
4739
440
3551
1689
6237
9089
2239
4936
8501
7422
8151
2150
7472
8892
5483
7343
9660
3759
4222
853
3007
3855
5789
8646
3137
1281
2013
4695
3290
3963
1506
4129
7796
981
3042
2806
7233
8196
2244
1134
9109
1671
69
5419
8837
6084
8072
5416
2366
4283
8674
7986
7871
646
691
9770
2335
5673
8844
8164
8252
2546
8385
3351
5512
6513
4361
3003
8414
3880
6396
4947
8238
5064
2220
441
6701
6912
4339
2202
9423
5538
2595
5500
130
189
8773
9909
7112
5107
2808
1823
1689
6984
2789
4654
2412
5212
5273
9960
2943
510
7667
6097
4316
1780
9194
5241
8800
7454
1777
7208
83
2398
5119
3495
4374
5546
4943
9964
8176
9365
9153
9448
3774
8351
8820
8702
702
3216
470
4755
8529
1018
9758
6599
3023
3229
3720
3483
4398
3824
8910
5895
9541
3119
6333
330
1199
6060
9515
1347
3124
5231
6941
5743
9676
1932
9935
995
5523
8866
7906
8868
4515
440
3382
9219
6926
8759
4664
8222
2198
3538
5839
9641
1785
2269
9955
7962
2815
393
3213
856
9244
8568
7435
2393
4383
2059
5342
7255
3908
5521
7830
4397
5825
8400
5207
2716
795
3556
4572
6575
460
7621
1316
5913
4391
2063
6088
7129
8879
7571
5678
5057
1256
4745
285
7756
8530
5846
3805
561
5511
2284
6868
2224
5947
1617
1064
3491
3692
7413
5838
620
3915
1657
4795
8452
683
93
6695
4119
2180
2401
1022
1598
1381
7326
4983
4155
6217
8748
2401
4460
9777
8236
4578
2193
6280
1908
8228
4142
2490
8009
7095
8038
1398
9953
9685
449
607
178
9037
532
2856
3234
9052
3355
6065
6805
514
7279
9657
9444
2640
6125
5051
9049
9294
3183
2133
3379
3912
1615
3736
9356
865
2763
2839
9880
6101
5447
5674
2276
6011
1427
5705
2551
1733
2533
8827
5980
3901
6857
6335
6508
2759
1609
1294
9967
3054
5319
128
7151
1173
237
1965
5972
5794
3397
6548
3487
2018
4857
793
7600
9807
3858
2946
8659
7824
7475
8974
8008
3951
5484
952
2311
7352
9816
2776
690
6812
1293
6480
6289
7819
7451
1374
4831
4891
8180
6682
9225
5777
7662
6974
3507
7155
6521
2233
2356
4640
3580
9697
4812
8281
8763
2571
9574
7482
6267
7562
51
516
2535
4396
4699
9697
3508
1791
8081
948
3015
7507
4760
3892
3500
1872
7905
226
3176
8050
105
3252
5025
3142
825
4917
3772
6769
1133
8931
8194
7267
2366
4346
5939
5441
4012
9989
3238
4873
3571
6351
8723
3724
3454
6735
1970
449
3218
1297
1318
7586
7126
9219
2278
2636
3142
1362
8665
5917
2168
3461
6486
7910
1757
9298
8398
2043
4104
2539
476
798
2345
8117
9904
610
7159
2086
2501
5760
1588
4807
3496
182
7592
1791
2116
5417
8945
7301
7264
16
2598
6052
2032
773
4548
6170
2268
100
6250
6253
7915
4561
766
8763
4869
2125
3462
7093
8264
5903
7997
632
6849
4514
8767
9976
200
3165
4667
3453
1153
2313
3783
3227
5930
3113
4574
6529
2529
9031
8783
6133
2075
97
9795
7463
1772
1743
7303
8836
6101
7711
6363
974
7201
9408
7889
4923
7120
9825
6832
6722
8884
9700
6953
5452
6140
6497
8325
8194
8663
8619
6747
8265
1339
1287
3590
5655
51
4147
3099
2431
5222
7454
565
2303
5410
5865
7596
3098
9004
3671
8635
3953
3937
2179
8848
4698
5339
9018
1768
8421
4656
5997
442
3982
7198
5282
1343
2178
272
4439
431
6802
8875
6609
6972
9514
4643
9391
5938
8333
2739
1
6003
9905
9949
5678
7881
3524
5014
9728
3961
6490
4540
7761
7570
2605
2364
1038
220
9736
4280
4445
5887
2628
1338
7405
2909
556
8308
3244
3345
2924
6246
7560
4031
230
7451
3124
3383
3226
4089
9528
6881
9839
3130
2071
7342
2793
7357
1600
1221
1485
2148
318
9590
2536
3879
2918
9799
7088
3373
9514
3779
3402
186
1381
3474
798
7785
4548
3223
9024
6316
785
4966
5837
6415
8342
4350
4965
6388
4449
4709
9136
1803
2471
9675
3558
2015
1804
2379
2685
3551
4354
330
6325
5069
376
8262
292
9026
9768
3871
7462
8299
5022
9995
9365
8407
929
1879
8408
2440
9906
3003
5901
9200
7292
1109
2648
6426
8974
9158
4483
6132
9906
3863
620
3960
5727
9755
8257
7302
8300
3414
9608
7386
2408
3603
1496
6732
2926
3964
5703
7219
8977
9196
6929
967
2989
5764
1507
1849
7551
9317
6184
9660
6993
2028
8549
3101
8612
7098
3808
3102
265
7327
949
2936
9170
47
8029
896
9036
2779
6260
2724
7701
8168
188
9414
7164
7578
5360
9081
1252
6970
5597
4773
4475
3313
4652
1965
2460
1447
5249
195
2942
2307
3292
7203
124
7027
3202
296
6475
8311
964
2822
9254
3645
930
9895
3741
2040
6100
9314
5207
2120
543
2914
3427
2961
7233
6022
5769
2375
5062
1315
8815
6422
7211
8752
3813
5254
9408
1826
7343
804
167
8847
1445
1759
5547
5367
4707
8901
4446
8111
340
3048
4219
6798
5259
453
9643
6976
4140
4229
965
8442
4190
9083
994
2265
853
8844
3622
3244
6776
6200
2339
8823
7925
4881
1792
4176
6506
9739
4086
9799
4629
1948
6878
5111
3554
3142
6210
5923
7589
3404
728
1002
2690
4922
222
8452
4802
8245
6090
882
9015
4221
1120
6837
2319
8531
3968
7525
9833
3221
8944
6450
3207
7040
7346
7408
9292
4558
2583
7583
2347
1999
9232
3020
7524
2290
1619
8649
6706
1246
6997
6032
5496
2226
9632
779
479
4043
7759
9418
4431
2698
3208
4085
8955
7497
9585
5125
8523
1220
6887
9959
4702
844
8218
5822
8654
6174
5857
5410
7291
4267
9935
8643
964
5175
8508
3681
9886
1636
342
7081
8452
4745
9475
2974
1234
1735
3806
2806
4434
8556
2908
5914
5888
695
2432
1106
9281
5185
9979
7607
6070
1053
3163
9874
7063
2556
4594
2045
9333
8690
6160
6311
3174
5617
1179
3991
819
1547
9409
9669
7073
9136
8851
7551
2536
2280
5748
6424
6242
9121
4744
1432
9991
9768
9362
1024
7916
7325
6747
415
4481
2131
4762
1611
6089
6777
4077
7906
6151
9375
2799
6054
2444
8073
9375
6384
7266
8511
4613
2091
8592
2110
1725
1625
4071
693
1731
736
5009
8677
5468
8179
5052
6710
776
2381
7303
2616
182
4547
1805
919
3227
5247
5870
3426
3244
3753
7393
514
1002
8279
8951
5395
5882
7413
5932
9378
1815
3283
893
8274
3362
8960
7078
9676
425
741
5393
3863
4577
5366
6287
7860
3991
5459
3086
2427
8449
314
9914
8636
2489
4562
516
8959
77
7837
5727
5354
1503
5349
9423
6920
7458
716
1249
1753
100
4480
7763
670
8302
958
5045
8994
9656
7823
2271
