817
3387
-4290
-8855
-5943
4331
7392
1407
5613
-9926
-7367
8656
3043
-6472
3024
4635
-7403
7630
-5567
6962
3119
-6242
-1769
5275
9832
-4732
-8278
4343
-1037
-6096
-6005
-4279
-9819
-8465
-1014
-902
5397
246
1258
-1538
6904
3778
2121
-9764
-9044
8842
-5942
-8764
2786
-3573
5002
2549
-8908
-6223
4957
-2696
-5326
-5444
5400
-3458
2966
1794
6813
-1165
514
-6863
9310
3151
-7095
-6906
6494
4830
-1611
-4890
6894
732
-9970
9589
-6208
-9597
8540
-8883
-9195
1597
4890
-2364
-6939
-4875
9698
7043
8398
-3979
-8960
-6023
-14
2440
-803
4139
7488
1902
4476
5334
-3601
216
-7744
-3818
4481
1330
1492
-5227
-2899
-8277
-2344
-5501
-9185
9103
-3993
7217
-9659
-4286
-5610
-6660
54
-7472
-3718
-7687
8904
-6542
-5706
-4400
-7410
6324
2748
-8308
8777
3653
407
-5117
-6826
4431
2553
2466
-5392
-450
9191
-3040
9799
470
-8942
946
87
4150
-5367
3855
7246
1143
6950
8365
9072
-6600
3918
-3086
4203
8094
-2159
6764
-5702
2682
6077
919
8926
-5208
-1177
-3425
3479
-4303
1879
3700
2388
-2764
-5989
592
5222
7764
2007
9390
6113
-1864
-4181
-9789
-8892
8697
5776
52
8943
1774
-4685
-7025
6561
-4890
-2490
-2921
9747
9005
4862
-1017
3669
-5449
3559
5842
8245
-3973
-6237
-1705
333
-1519
9607
-5041
-1725
-3610
9357
-7466
760
6676
4825
3134
-7452
-5027
9324
-594
8973
8118
4982
-5696
9342
7831
4929
-5820
4044
2172
1936
-9539
-3227
9361
9811
-2068
8304
-8674
3222
341
-3317
5114
639
-7971
-7982
9585
-5830
2793
3404
9355
-9559
-8452
7554
-653
-8790
-2427
-9112
-4220
-7188
4033
-1432
-3651
2376
-1222
2730
-9441
3711
-4495
7330
-2756
-3631
744
2736
548
9522
-9846
-2507
5793
-3982
-6697
6601
2207
-5580
1510
-9204
-580
-7805
1882
5384
-8962
5315
-659
-476
-9094
-2891
-7040
-6516
-6226
-575
-9610
650
-5320
-9740
-6826
1929
-7610
-3216
5029
-2968
-3273
2641
-4579
902
723
984
5052
-6133
5684
2968
-5513
-7485
6627
6235
2970
-4244
-9547
4235
-7463
694
-6768
-4410
1239
-5704
2036
8679
3193
6448
4243
-9006
-1282
8849
-7899
-2644
-2584
9978
-9810
422
-5720
8688
2090
8822
-5493
6717
-4378
7155
-5510
-9599
-5780
-9449
588
-3919
-3675
4670
-340
8367
1338
-1754
-2221
5293
-6147
1947
2565
-2480
6929
6698
-167
-1071
5510
3212
-332
7178
1513
3845
-3095
5532
8077
6698
8945
3393
-7284
3532
814
-9137
-9896
-5221
9286
8699
3825
-1979
1469
-2294
-1332
-7304
-785
9923
-9901
-6611
-7988
-6981
-1733
9599
5976
-2288
-2664
3627
7392
5001
-2287
-1241
5288
-9798
5244
-6520
-8411
4087
2476
5472
-3672
8385
-6063
2952
-4148
-6548
-2187
-6979
5688
-2960
-975
750
7451
-5147
-5121
4984
7779
-994
-5784
9060
-7662
-4045
2648
1810
-8027
9553
7392
1146
-427
-2931
-4341
-4454
-8702
-4832
-4097
-4499
9607
-1004
-5199
7252
-2156
-3856
-1738
-7502
5296
-4227
-5878
-8018
1835
5765
-1803
9636
-6320
-9169
6853
-1325
-7605
3303
4256
5019
-3024
-7172
-6474
5645
-3990
2660
6863
-6353
-8111
-9848
-263
724
-4979
3035
-3587
-5848
4101
2674
401
-4698
-5169
-4719
-1884
-7270
5664
7697
5006
-1964
9881
-6274
9977
5504
-4152
3099
-5101
643
4340
-1320
8078
-9145
1975
6829
3299
5831
9696
-1805
-9237
-4990
-727
-9656
-2547
-2000
8072
7276
-4446
-3739
4230
2117
-6655
-9216
7775
722
6615
-9738
6411
-2936
-3210
-1632
45
-891
2910
8461
-8740
6913
9878
-3944
7280
7125
45
-8855
-8188
5363
9377
-3593
-221
-7672
5343
2102
2591
-9373
-5174
4234
7665
-709
4407
-8422
-4516
-5881
9404
-6248
9784
1863
-7657
-4221
7906
5747
9170
7833
-6439
-9841
4660
7635
-608
-2737
-9836
3221
-5075
-9558
-5933
-4554
-7772
2018
8125
1339
6499
-2250
-7621
2793
-6561
4000
5988
-3184
-6575
-1547
809
1101
86
-7958
8874
2450
6697
5713
7593
-1557
3489
-6751
-6148
-8023
-3030
9875
-4263
2450
-6625
-1792
-3237
-8535
-1352
2249
-145
7550
5658
7404
6615
-2958
-5183
-6227
-4355
-2518
8943
4006
7377
8029
-7895
-6347
895
-659
-984
-1972
7169
-7495
-2793
-2645
7602
-7591
264
6284
3695
-1010
1897
-4204
2288
-7307
2618
9284
984
-6196
2908
2808
8327
8477
-2637
-8149
7128
5881
9247
6104
-7512
4272
9785
-3620
-6390
8453
226
6858
-9752
2091
-6615
7135
-4498
-9013
742
-9768
-9122
-3312
-7859
-2238
-3553
-7265
-170
321
5347
-9568
7895
5431
1925
9395
1667
-3319
-8590
-9936
4645
-268
183
-6282
-4683
489
8990
-7087
-8567
-6349
8405
3368
-9438
-6839
2078
-6893
-2995
-2882
-1993
-3389
1452
1784
7152
-1882
-2716
2377
2083
-9748
187
-4962
4957
-2757
-3348
6010
3516
1564
7301
2083
-9714
4622
6793
-5228
5162
-6516
-5309
-3907
3931
-5807
-176
8131
-6628
2095
-4683
9551
-4120
3534
-9006
7198
1453
6336
-2396
406
-9670
-7783
-871
9545
-3857
4383
-5663
-4459
-3812
4791
-5708
8831
2116
214
-9491
-1082
-309
9882
-2910
7034
-6729
-7817
-5135
-6250
-4634
-5708
-6443
-1317
8257
-9006
-5733
8423
8297
5641
6950
-3176
-5223
-4728
-8521
5300
9825
-271
2215
-8586
2493
395
-5551
-7083
-9224
2056
4178
-8623
-1027
9302
-7052
7767
-157
8423
8154
2476
462
-2328
6097
4207
-2314
5843
-5760
5386
-3792
4088
4710
3092
1816
-168
-4837
-2637
9842
-3048
-1631
-4479
2027
9856
-3198
2474
9921
-3460
-2728
1195
7202
-7457
8544
-6583
3036
-6689
358
-7986
-7531
7654
2988
3645
2953
3813
8919
-476
-7347
-3968
-5389
7614
9775
4650
-424
6806
6288
-8122
-7066
-918
664
-3769
-3846
-7435
-5930
-1224
-6276
3042
3964
-8720
1644
491
-3415
-6715
2960
-45
-1942
-4281
-704
6544
-1604
7561
-4455
2652
-806
-4591
-8544
-4946
9147
-317
7161
-1784
3807
-2251
-2362
9835
1242
-790
278
8486
2045
-6257
9598
1711
-4059
-2836
1812
-3215
-1806
-5504
3596
-5051
8116
-271
-3454
4755
9740
-2654
-2516
-6202
-9746
5673
3547
1559
-2957
6341
3070
-3568
-2875
2599
-2068
-2386
2680
-3370
7341
-7804
7858
2589
-3836
-7739
-3673
1267
-8635
-3529
-5481
8931
1609
-3042
-2284
-2365
-2205
3684
5598
-2642
-1965
-7478
-3547
783
4745
-73
7390
3479
2006
6850
9065
4995
5681
4014
-3605
3843
9161
6389
3742
9192
-848
6739
5011
-8577
5828
1049
-9295
-9281
4449
-8519
-1755
-2505
125
6557
-6539
-1767
-8825
-6554
-6515
-2013
1670
-5354
708
5365
3043
9967
-1392
3146
-9734
-294
6361
8598
2593
-2959
-9255
8451
-993
-5119
-2482
2559
-20
-3189
6010
2143
4191
7456
-1319
-7583
-4045
-8371
-5105
2261
9763
-6768
1104
-8295
-9150
-2101
6137
114
-822
-6644
4189
-2463
-8919
7264
-5877
-409
3110
-879
1189
-7875
-9632
3094
5110
1462
-1880
-4939
-2625
-5985
8013
-5874
-8847
6606
5097
1627
3069
8453
7597
-4081
5404
-5931
2235
-5267
1157
-2155
-8571
8852
2669
-9976
-5975
1540
-860
-8372
8232
-2105
-6094
-6930
-3252
-373
832
-6827
8369
-7944
-9263
2443
1455
460
-5724
6293
2611
-945
7993
-4684
2086
-5878
7087
4372
9894
1800
431
-5654
8887
-4756
6980
-8527
4818
-1655
-2331
5807
-6168
8867
6027
-8495
2613
5808
8363
-3918
9463
-5595
-1801
7295
-5940
-5938
8787
-2743
3572
609
5114
-9023
-1919
383
3680
3031
3769
5315
-9408
61
-6471
-6046
-5899
-1190
-7185
-6088
-544
-6814
-7279
-9878
-1043
1266
5899
-5878
-5354
951
6442
2103
-3258
8252
8618
-1441
-9162
-8108
8246
-5700
6325
-5973
-6836
4757
1766
8823
9868
6248
7271
6443
6524
-218
5945
-3892
-8765
-5351
3060
3149
116
7975
-4046
-9881
352
4622
9965
-7138
-5817
-760
-2786
-1258
-2113
9269
8984
-8390
-4163
9831
-6184
-1220
7661
799
4199
-1484
3574
2670
2762
-6676
-4624
-6059
-9735
-9549
7780
-6448
-4287
-4546
7839
9570
-7768
8242
6537
1969
-4980
32
-138
-3506
-4521
5523
-6336
-8945
9756
-6567
-1844
-4166
-5395
-7046
-1451
4835
-778
-458
-5882
7025
6203
19
-2529
1632
735
905
7118
9793
-9374
9329
-577
7378
5257
4236
-7033
4913
1461
9679
-239
3151
974
-2097
1142
1968
4813
489
-3608
162
6819
2920
128
4330
7212
-8914
-1460
-8235
1808
-705
3524
-5277
217
-9891
1704
2439
4600
68
1379
-8866
-7866
9394
-6609
9010
9700
3060
7470
-3084
-2746
770
-8685
4361
6305
-2091
-8664
-3428
-3909
425
5801
7876
1874
6988
-1547
2428
-9804
-3969
9812
-9564
1285
-462
1624
6247
1506
-3742
1429
-1612
1517
1333
-430
9387
2431
-9386
5270
1454
-9707
8095
-6499
2986
-6477
-7757
4680
-3749
-5467
6626
-2397
-6251
-3806
-49
-3280
9302
1159
3942
2901
8284
-6582
-8425
-1162
9151
5241
4252
-1458
19
-6003
4180
502
93
9213
9091
7025
2110
8929
-236
-7341
2042
9196
-5808
-9145
-2729
-649
9050
-8869
-1762
5603
-7254
-7667
-419
-4302
-8341
5784
-3176
6381
1626
7392
-9065
8850
-13
2764
-9781
3533
10
7627
-4364
1494
3890
-574
7942
2395
175
9289
-7060
-6076
-2695
-7590
4530
8156
3309
8996
-258
-6879
3139
-2206
-2336
-6811
1671
-9342
1148
291
2986
-293
202
-1801
-4622
-6207
-9469
-4236
3369
7371
-1117
2175
4927
5462
-3986
-6238
-9397
4589
8247
-5779
-5222
1557
-8060
-1056
-194
1194
2742
-4217
8063
-5404
1395
-9743
-325
2899
-5069
-4225
-8983
4326
-2268
7953
2273
8159
250
9097
-859
-402
8104
-7703
1793
7247
-1584
8245
3872
-4393
6428
3665
-6785
-4297
-1210
1794
2080
6852
-3698
-1146
-9783
5741
2084
5541
8905
401
9152
3861
-9132
6086
5542
9873
-6341
1735
-762
3557
-2829
2522
6011
5239
7337
7824
4963
-2864
-9921
7197
-5998
-5219
7
2445
192
-638
-1140
-3388
-6837
-2625
-334
5270
-5110
759
3016
1395
8242
-2406
5334
5218
218
5396
274
-7410
6450
-667
-2300
-4292
3778
4681
-9848
2164
-4421
-8264
-603
9433
199
-6260
6908
4152
4894
3698
3152
-1963
4945
2134
111
8522
-8881
-2388
-7459
-2717
-2538
3576
3508
-5480
3921
-3023
-2331
-3557
-7977
703
7181
-9370
5960
-4375
6881
4212
330
4209
-9356
-5232
-5951
-6520
2678
-6316
7900
-4587
126
4991
3836
1656
-6922
-8683
-8563
-1104
-279
5755
-4425
-4190
-6058
-57
-3284
294
-4276
-8061
-6523
9392
3097
-8333
7711
1918
-3618
8216
2232
7709
9445
-846
-1234
-2073
-6949
-6846
6632
-7674
3204
-1324
-8190
-7439
-7868
4680
-4054
1859
2671
-8355
-3535
-804
-8064
-59
8073
-9700
-3332
-9891
3578
-8044
73
-9833
-435
5929
-8756
-1156
4793
373
-9214
-2590
1787
3606
8006
-7722
-2775
-4754
1236
558
-4281
-4265
-9219
-8636
7463
9911
548
5994
-9639
6377
4895
7410
1206
-5854
4226
-7611
-9544
8443
-4419
4278
787
-9145
4774
-7791
752
-7957
-9611
-7617
-6332
-2903
9480
4443
-6490
3048
9235
-3437
4856
-5605
-4064
-7085
-643
5574
-5139
-4700
4673
9511
1889
4102
-6160
-6970
870
-9553
8814
-1937
-9493
-7192
-507
-1702
-775
6041
6700
-5604
-1324
7433
9540
-8750
8135
-3459
3532
-2459
-9540
1512
8468
7688
-497
-9665
-9070
-2219
-907
1726
7716
8011
1803
-8565
7426
-3358
9644
-9722
7708
-3577
8241
-2542
-1983
-5482
2036
9921
2564
-2108
2594
1903
8962
1623
-8105
-7124
7102
-8533
-9922
-3824
9715
5008
8945
8116
-6395
6764
-5868
9418
7375
-3347
-9624
326
5680
-2586
-5145
5295
-6393
-3488
-9660
-6710
9116
-1227
-5082
8683
3593
7248
-4027
955
6956
7243
-6539
-6416
-8753
-7477
6267
8211
-7271
-4510
3806
-2853
2617
7695
1639
8310
-1095
-6074
-460
-948
-4524
7402
1267
-8218
9014
5698
-5773
1060
1841
-2451
5186
-9645
-8837
-9865
6710
7757
7576
406
-3099
-1824
4808
2214
1536
-2062
5176
2425
-7537
2657
-5226
2592
-6658
6273
-4132
-1692
-2964
9359
7715
-4071
-7708
-7601
5001
2433
4634
5490
8548
-4077
5155
-362
7938
-8174
-929
4649
-4977
-7910
-9485
347
-9609
9267
2227
-3504
-7614
8594
4149
-2537
9327
9295
-8993
-3458
9423
854
4971
-5004
9675
7172
-6774
-7347
-4610
-3743
-8459
-2877
-2026
9631
-4775
7512
-6688
-3152
7440
-5348
-3924
3431
4431
-2010
-2651
-8085
9306
4068
-7861
8131
-6266
-5305
3871
3767
7391
5408
-3024
3600
3120
8716
471
3203
-6173
-1068
8562
-8014
1464
-3507
-915
-1782
6036
9144
5010
7488
-2327
-4112
-1651
5276
3328
7896
3595
-4052
-4063
-8481
3005
-338
9500
670
1947
-2797
-2713
-8979
-733
-9276
7498
6890
4382
-3143
5307
-3239
-3361
-8771
-3204
7002
7221
6741
-1520
-4903
-9642
-1091
-4684
-7074
8469
-3518
-8711
4090
-9977
-8296
-506
-4157
645
3055
-7573
9780
-8380
-7126
-2894
-8774
-2712
4150
-2813
9916
-5545
-5752
-4429
2200
1456
3106
9602
4331
-7983
-6109
9234
-8040
-1048
-7634
1131
2839
9167
-5289
-195
-3463
9626
-6383
3673
-5643
2781
-875
-9109
1115
-6944
-1175
8276
9056
-8531
-2033
431
-8370
-9221
7863
-3271
-4595
-1012
6773
9493
-27
-6262
-3036
-9913
-3494
-9124
3574
6844
-7056
-3076
-303
-8360
-3072
5265
-2689
410
-3975
9722
-9549
7436
1284
-2622
8599
-1128
7724
9310
-4117
8348
7918
5127
2935
1239
1832
-9207
-3287
-3151
-5847
6512
2860
5967
7919
6113
2085
8528
1895
677
-3895
-1594
-6177
-6600
-1415
-3881
-7037
-6076
2408
-3468
-1504
9496
-4492
2134
9926
6138
-7307
3172
8264
3084
-967
1588
-221
5807
-5905
-2724
-8478
-4479
-9468
9930
4560
6625
5765
-1364
6280
-3400
-7395
4866
-502
7708
-440
1141
-809
-5675
-5862
-4432
-6114
-7243
-6974
-1797
6844
1091
-1105
9108
-7090
9210
-3253
8319
-3169
-3032
-1058
-2591
-1172
69
3905
9101
-8139
-394
2599
3965
6156
-7455
-6402
-8211
-8887
-5040
-4318
-3626
-7749
1621
-5159
-4931
2764
5487
-4788
-8362
2173
2158
5330
4069
6040
2781
-9554
2661
-8890
-356
389
-5444
-3340
5846
1759
1333
-1113
-3316
5204
-6820
7540
-4496
5274
3126
-701
3119
482
-765
1389
7202
-4014
-3289
-5646
-8032
-9710
6060
4636
-9575
-8998
1383
4963
-1842
-2846
9896
8889
-5508
519
-6516
9333
-5821
-9215
-9878
-2522
569
-3339
3443
-3519
859
1768
5039
8868
-7509
7778
4987
6332
-2729
-197
8362
1104
8890
1092
3087
8286
-2933
-8775
293
9160
-8323
-6445
-4894
-6944
-8563
-6952
-1765
-4083
-5596
-7758
1489
4515
-3627
9430
-4234
6625
6125
753
7863
6354
799
-3881
-4845
-1022
-7319
-307
-1954
-8664
314
-2638
-107
-9563
533
5946
-795
-8318
3711
-3853
-5020
-2875
-457
6208
-7632
2410
-6359
-4445
-2230
1707
-1293
5469
3120
6333
575
-2561
5279
-8830
6256
-9067
-129
3191
-5827
66
-3853
-6418
-4266
-2280
-723
2045
9423
7817
477
-5020
-8442
-5620
7967
4609
6581
6643
6803
-2947
-1699
7153
-4921
-3002
6020
-8749
-4843
5683
4743
8872
-1274
-5342
857
-6553
-8976
8713
-9950
-4024
1241
-9574
-3214
2622
-8839
-9388
-2656
5299
-4596
-8387
-4870
-3383
-7248
8285
-2729
4715
945
656
3440
7079
472
-3091
8086
-1793
-2291
-1574
6074
6753
993
8413
-4382
8687
44
-5972
-9660
-5843
8773
-9354
5410
-8927
-3018
-6036
-1785
-1256
-8333
-758
5223
2103
4099
6857
-2049
5563
-8119
2603
7898
231
-151
-5458
899
2446
-5431
-2299
-7346
-5223
-4458
-1813
-4122
-2077
-1432
-6417
-2702
166
-6459
-2952
-9501
-5489
-6495
4448
9869
2426
-2390
9368
5216
-3837
-1778
5817
7908
-1948
7054
5111
-517
449
-5654
7965
556
6305
8419
1683
7466
-5838
-9710
5664
7322
5409
-1370
7303
-2653
7738
-9088
2403
2545
4200
2304
7597
8782
-1110
-3533
-4532
-1298
-538
-5480
-1085
2585
4782
3212
-7380
-9546
2936
-87
-2634
1295
1804
-1865
3914
-3376
-4068
-194
-9658
1270
-5617
4884
8796
-4543
3900
7928
-5360
-2701
-787
3848
-417
-2542
-1283
-3545
-1344
-9824
4080
-6480
7012
-3098
673
-4105
3266
-6193
-3955
-1469
-2447
-8984
-9361
4352
-801
-7224
-7642
6078
1912
9277
62
7219
-1850
6825
8735
-1264
1904
4810
-6501
-4450
-343
-377
9152
-9016
-4657
5785
9349
-7716
-4959
-1584
-9629
1173
-6716
7848
6937
-1263
593
5516
-8312
-8735
7878
-6694
-907
-6676
-1794
5206
3906
2517
-9816
1733
-2451
5841
2236
-4299
7636
-8750
2491
-6843
-8027
-6170
-952
1814
-4707
-9960
-8412
3652
-1748
-5102
-3490
-7880
-6106
-5458
9143
335
-6731
-2358
-3487
9502
-384
-4341
-4701
-8565
7989
-9261
5937
793
7556
7612
3752
-5558
-6864
4483
3799
-4560
-9561
-1067
5124
5284
35
3572
-5586
8416
-7057
-6585
2165
7119
9396
-2376
-3361
-3836
4319
2382
-8123
-311
-9229
-9686
-3347
6683
-3458
-2715
-5647
-2335
7970
3354
9336
1265
-7332
-7634
-5166
6154
568
-9483
-299
-5635
-5876
-123
7976
5415
6450
-8339
9205
-3008
-9203
819
4753
8165
-1806
-1302
9341
2744
-2220
-8984
4698
4792
-5871
-4853
7880
4305
-2962
3605
6158
-3770
-2636
-3209
-5077
452
-7170
6638
5384
-2031
-5421
-3944
-7927
-3404
8015
-2161
6030
-7961
-4223
-5966
5150
-4815
-902
-2858
-7069
6329
2471
-1530
1848
8891
5585
2685
-8459
-4974
-5496
8729
2304
6487
6283
5473
-4215
-4746
7284
6163
9812
-6464
-466
8554
1043
-7420
3664
7079
4962
-1000
375
-7194
330
-521
-821
8260
-6358
-1986
2907
3698
-473
9977
-3742
5643
-2499
2960
660
-6499
6848
7571
5914
-2125
-1360
275
5928
-5888
-5434
7604
-4187
-522
-944
3114
-6898
6443
-8529
-1984
3533
5493
7427
5922
-6781
1570
-3125
1476
-8378
40
-4901
-2201
-5813
-1537
7129
-4649
8881
259
-1310
7614
6470
-2271
-8432
-7262
6367
-7781
-2331
-9508
-5355
-3013
6289
5728
-2730
-9541
4151
4433
736
7619
-9569
-8695
-7582
2905
-6143
5793
-1483
-6342
-7345
6573
9124
9458
822
740
-7663
4993
-6499
-5610
-553
-8362
2660
-6647
-5968
-657
-1142
-3218
-4403
-3129
1235
4077
-6520
574
-9601
-7367
6619
-3979
-7563
8018
-2388
-3649
-3383
-784
4145
-3893
5151
557
3338
5723
8443
6420
9375
3936
-1106
6696
4953
-3371
-4122
9534
-8387
4052
-356
9927
-1052
3318
3676
958
-9435
-5809
8623
1060
6221
-8061
7470
-7692
-7690
2729
-9988
3597
4787
2281
3755
5174
1918
-3275
-2
-211
3709
7684
-8324
-3895
-1950
3627
-812
-3471
-1686
-1992
3652
4010
-86
8203
2778
-594
-8333
-9479
4137
-8009
-3794
-1137
4980
-410
-7934
-1696
-2467
-9288
9366
2445
3573
8009
7650
5897
2977
493
5368
-6486
-1714
8000
3299
2868
-349
-7641
-2019
-1841
2115
8032
2005
1676
3652
-3547
-8222
-8134
4377
2764
6751
4554
-5499
7953
1524
-580
-1702
-2107
5817
-5706
9849
3016
2975
-7900
4358
8599
-8379
-9191
8337
-7602
3869
8704
-524
-6153
-9404
8827
2932
2945
9865
5074
2040
-5115
-1681
-9893
8835
-5501
5102
9106
660
-6533
-8530
6726
2818
553
-661
-4334
-3383
677
1513
5461
5750
-2953
6770
-2398
-3613
7882
9254
-7596
8667
827
-7523
7725
-3640
3171
548
-7635
-826
1317
7306
4204
8060
1183
671
7898
-897
-2857
8713
9081
-5229
9877
-5629
-3800
8996
9762
-2484
2062
3857
1226
4847
2628
4473
6398
-9017
9246
8312
796
-8451
-4011
7722
8130
-7273
-1628
-902
-9412
-210
-9148
-7246
1605
4733
1597
-5858
-915
-7936
8117
2758
-412
4161
-2013
-5231
2511
5341
-5185
2219
-7248
-4835
-8813
242
-8205
-365
-1441
5500
6417
7785
-8057
-9476
2351
-1219
-9184
-4389
-2990
1672
7400
7959
7368
-7726
-3410
-7515
-3780
-5473
-2241
8203
7275
-4907
-1764
4615
-575
-9249
-6968
139
6429
-7203
733
-8321
4237
4645
-3462
-4959
7275
6910
-5399
2453
8689
-1690
-5792
-2084
-4562
-689
-4496
-5013
2419
-4655
-623
-5101
-2652
-3991
-5840
8968
405
-6036
6487
-7189
-6367
-194
-5333
1983
-3299
9932
-2284
511
-3677
6556
-1887
-5483
-761
9736
2715
8643
1742
-2108
3947
9665
-4378
2933
3565
895
621
-1188
-632
-4842
-4758
8878
3014
-5557
3768
-4746
-7058
8347
7724
-9146
8986
9756
-6894
7655
-782
-8399
2548
-2843
-4160
8039
-5507
-6611
-1586
-2693
-7064
2786
-837
8099
3613
9513
-6451
136
1424
7762
749
-7874
5800
8953
-3568
-4386
9936
94
8749
8574
4958
-8082
5945
-5750
-2601
2403
5044
-6089
6083
-7793
-3454
-1951
-8382
-6129
3633
5962
-6609
-6378
-1563
9133
1448
2742
-5968
421
-6054
-7327
7799
-2876
7257
8134
5385
-7708
-3064
1075
-649
2840
7573
-9177
4253
-6835
470
-2644
7362
2869
8309
-7008
3218
-9306
3121
5367
-6193
-8392
1388
7843
-4325
895
6173
-8638
5591
2654
5764
904
4121
-7306
-5819
-2810
-2304
-1519
-9544
7942
-4089
7634
-6469
1135
4229
9319
-7141
3264
-5453
-2068
7596
-8134
-4686
-3701
1362
10
3432
3777
9889
-2339
5892
5845
-370
-4784
1271
-589
4458
-7161
-8834
1460
-5198
8142
-852
-7309
9751
6217
6090
-6567
-9237
8989
-9236
1218
-6550
-9091
7890
-4562
9923
-4425
-7366
1444
-681
-1711
8354
-3143
-5390
-6024
-2591
1994
-3645
9016
3018
-8107
3742
3339
-6020
4802
-6850
739
-5707
6436
7972
-3938
-9047
7216
5176
-1467
-1344
-4261
-8587
4169
8184
3894
-2770
-5781
9930
2555
-5669
-9088
4698
-7960
-1292
-3555
7320
5770
-1462
6474
-4378
9810
1780
-4954
-1766
2164
-2962
8984
-9546
3269
-6657
-6154
6859
4532
-3821
-4730
-4432
-4061
6773
2968
-1099
-6540
3370
-7614
538
-9687
-4006
5691
7339
-3355
8426
-5104
9831
4402
8603
-8314
-5876
3679
3517
6840
-8171
-4114
-6173
6344
6490
3486
2972
4881
-3370
-8730
-633
-5054
5637
-1236
-5504
3029
-5853
7113
1739
1548
6338
2030
-66
-4517
-8396
-9942
-3989
-1210
-4743
905
-7709
2011
2604
-4069
5254
-5653
-7409
-2840
232
7703
-586
9806
-7865
2825
-3459
813
-5938
2082
-8697
-1664
1930
-3149
1782
4741
5220
-5788
4838
1974
5758
3753
-6492
-6144
-9991
-5282
-7176
-2607
834
-1930
-4545
4581
-7397
6030
-7047
-7637
4055
-3113
-1655
2446
8796
-319
8305
-9383
2411
3066
1758
-2656
4620
-550
-7151
2961
6875
-2506
5445
8135
-1365
1568
-3048
4560
1170
-9550
2920
-5649
4078
-5063
-1503
-5061
-7025
664
-5289
-4514
9907
3514
-4412
9305
6984
-9353
9472
9391
-1851
-9579
-5763
-9352
865
-7070
-8423
-9807
-5744
1527
3158
5465
5591
-8932
2674
-161
-4039
-9384
-7317
7773
1867
-4380
-7750
4868
5948
8304
587
6223
-8548
9115
644
-6475
623
211
9902
7325
-7180
-2531
-3222
9477
-5047
-9940
-4810
3985
-6168
8312
4430
-6145
-141
-5147
2706
4932
7483
5185
3513
-3232
511
-4549
1983
-8275
2693
-9447
-2202
2854
-4024
-2538
-8963
1469
-3557
3352
-7777
-5948
-5567
3237
-3848
-55
-9463
-9697
814
-4464
-1244
5951
-8413
-1033
1711
-1678
-2497
-6055
-2140
-1960
-7313
-375
2706
6552
-8177
4571
-4586
1533
-7787
-3531
-2671
-9199
5611
-1320
-5401
1816
6305
7969
7920
9953
2770
6629
-6049
-66
-1504
7864
1780
-1841
8142
6098
5502
-3128
5832
-9119
-763
2838
1591
-498
934
7810
4591
9384
4345
555
-3915
-1075
-4945
418
-256
5439
-9031
-3845
-4722
6798
-1274
-8599
8499
-9820
-2187
6210
8690
-1018
2575
-6118
8155
-7058
-2812
-214
590
-8960
-6499
-3130
4633
2473
-3018
-245
-9611
8499
8107
-4909
3898
-280
-6782
-5453
3494
-1703
7610
6438
-9656
8595
-1666
252
-2244
-1022
-3515
6407
5301
995
2534
-9257
8093
1238
-9251
8293
3458
8147
9467
3317
-4553
-4172
7353
8846
-5455
-2717
-8990
-9895
7958
-2805
6119
-6962
2549
-7287
9867
9775
-321
2740
-5620
-9330
-4538
-1648
-959
-2563
7839
6406
2046
21
-5937
-3078
-9955
-8357
-3165
8012
4674
-3058
-7358
9127
-4473
3003
679
5588
-5130
6941
-6865
-1131
-798
6158
318
-2324
-4066
-6451
4453
-9098
-9597
7581
-293
5923
9600
5297
2682
8764
-2586
6015
1473
1994
2572
556
970
6202
-8047
501
-1895
-7385
6984
-8817
6621
-934
3728
-1103
6630
-4406
2500
-4667
30
6583
2632
3553
-5245
2764
7281
8787
5613
-7278
4443
-6359
3070
-3808
-6446
2603
-5099
9179
7950
-7040
2234
3621
-8569
-1196
-5886
3864
1407
-2382
2006
2014
6538
-5113
-7405
-9310
-2314
3905
-8139
4533
-7482
-6
-1069
8778
3932
813
8252
102
26
-3946
-7908
589
-485
-2249
5715
3065
-5367
6473
-9280
1696
5951
-9605
5112
-5498
-8254
-1723
-2661
-5617
-3577
8619
258
-8993
4501
-8203
-9876
-1246
-4522
574
-7272
-1294
-8217
-6870
1796
5675
2868
6651
3517
-9972
4161
-8318
6944
-94
6455
-9314
-5273
4679
-5152
504
-7080
-3914
-1696
2573
-6328
-1118
9718
8337
-8184
6007
2732
-1547
-1693
-2273
-4757
-1178
-1972
2005
1723
4589
946
6742
9836
-166
1415
7177
-1300
-8615
8897
3497
-6083
7798
-5709
885
-1433
-1970
4092
-7631
-8487
-4953
-7677
-4637
5066
-2501
-4934
-3438
5872
3486
8249
-3288
9252
-2335
6732
7647
7162
9813
5290
-7131
1315
-1837
3465
-4211
-7472
-5300
7638
-6777
-3819
2515
-4424
-5002
-165
-9410
8499
-6092
502
6601
7749
241
-6980
6773
1568
3655
4595
3163
-5104
7637
-3863
4523
-6091
-8624
-5121
-3688
-5168
-8937
9226
1693
-1830
-6256
-5236
-1784
-4438
7871
-6536
7307
-6478
-620
-9601
-3682
7725
3756
6908
-9344
4597
366
-7404
-9572
707
4629
4417
3885
-2195
7915
1104
-2633
312
7758
-6284
-6237
-1958
9311
2207
6351
4536
-9412
-7046
1844
956
-3905
395
2067
6726
8526
570
4677
517
-9281
1254
8952
-2782
-5935
-259
75
6919
5863
-959
-4430
4373
-2338
-404
-9059
-7353
1632
5440
5943
2046
7917
3816
-545
6288
-3786
-1863
5208
3447
4167
7976
8855
4167
-5932
9568
-6653
-9421
8568
5871
-3751
-6489
7950
3674
-8202
-147
4416
3327
8542
7571
-8962
-7603
9041
-2017
-343
-1341
9652
9394
3183
1903
-477
-8106
242
7363
4749
-4200
-3528
7027
7584
8440
2457
8462
-807
6716
9737
849
5341
-5557
-3478
1891
-9060
-8188
-2989
8392
1987
344
-4498
7687
-7927
-2623
-4278
2081
-3667
-4159
2836
-566
-4455
-1765
-9145
9313
-5269
-988
5999
2503
-8046
24
7812
6678
-6360
986
7343
-1800
-4389
-4398
-1605
-5170
9151
-9558
-9573
8140
-9232
-3221
-2948
-6619
-5409
-3337
4456
4159
-7445
-4295
4943
-221
1236
6204
-2073
-5804
8813
424
3194
9779
5793
3178
7507
7031
-8833
707
-8701
4004
-3262
-6769
-9878
-2834
-1565
-7740
-1213
-9747
-8385
-4249
-2267
3098
-5056
810
205
7920
-1534
4668
1600
-6226
1670
7539
-956
9636
-6570
1197
1773
6635
-1363
-4729
-3344
199
1340
5433
4316
6844
9308
-9557
2097
-4028
-7533
5894
4517
-5161
9700
7075
6840
9754
4535
-5400
-8350
-814
-6256
-8393
-7653
-1297
-7058
854
-4568
6954
-3937
-7470
6384
-1840
-2803
-6547
7377
-9297
-8320
4681
-9689
-147
-3747
8380
-8026
-7060
-9380
2030
-9402
-6751
-8455
9792
7851
-6031
-9570
-6588
-5649
1848
2542
1243
-6653
-2069
-7153
-1343
-8466
1297
-1791
-1310
7003
-5589
-7010
-5161
6606
9992
-8739
-737
-3515
-9374
7186
-1462
8026
-2616
4641
3699
-5355
8137
8979
-566
-1510
184
8343
1536
1870
-8326
-2612
-4332
-7375
6898
-1620
8845
4161
-7454
6431
-7383
3463
-5013
-1395
4080
9648
9331
-2715
347
7741
345
-8149
-486
-6926
2007
-8097
-2404
-4102
-6813
963
9905
9236
-7871
-437
-9644
-4472
-6926
-4893
4546
-9931
-7367
-5618
7771
5252
-6975
5470
7094
-2816
1817
5251
-6719
-2791
5445
1859
-7178
7057
1309
4856
292
-1474
5191
-8655
9563
-5665
-8817
-7650
-1771
6325
8911
8539
-7270
3908
-3564
1587
2208
6403
8712
3041
2638
5199
-7134
-1560
6040
311
-1686
-484
7543
-2493
-8799
1456
-8890
6586
-4649
-8366
-451
3508
7603
9267
-5948
3357
1946
2240
9067
-6990
-9351
6747
5553
7259
5746
8386
-4178
-6620
-4224
9731
336
-3623
1483
-8271
3288
3421
8076
4464
-1955
-9408
8940
4448
-6941
4096
-2972
6339
-7827
1105
-1008
-9201
2765
-1468
7669
-7404
-2410
-7831
516
-3777
-3053
5112
-8335
-840
-59
-8979
7524
-9650
1400
-7219
5848
-621
3870
582
6601
1431
5856
-3091
4726
-270
-8564
-8977
-7278
-1381
3040
2628
-6527
6793
3467
9837
-8808
5364
3248
9150
612
-4062
-9710
9651
-4877
-1965
-6737
-2097
-3680
6246
-7874
-8633
5570
-418
277
5678
2173
-9819
9601
138
9822
9236
6032
5111
2307
-8712
1820
9635
2256
508
-604
-9210
3581
-340
-7427
8580
-1998
-2563
-265
4626
529
-3450
2845
-8396
7013
732
5400
-6575
9469
5528
-659
713
9860
-5627
-9523
-2050
5752
-2831
-1424
4575
-3535
-7475
2882
-2891
9570
9363
3701
3887
7532
-7303
5130
1742
-9674
-6865
1024
5662
8244
3579
6857
3777
9374
-6715
1056
7219
-9796
6127
1341
8315
-9164
7180
7457
-4900
-9023
-8233
6132
-2735
60
8344
-6914
-537
3651
-6391
3982
-5209
2028
9097
-138
-9332
-399
7098
3590
2921
7282
1166
612
-5933
-9808
-1148
-3024
3040
7487
-8725
1043
4065
9676
3033
9784
-8117
1988
436
6264
-6357
4902
-4411
-1497
2405
4457
-8377
8532
520
-3821
6676
-5547
9952
2503
-8890
-6673
3477
-8983
-7728
-2024
-8629
9732
-6400
-7760
-8820
-1084
8405
2878
-5803
6096
3202
1773
-1405
-2027
-6010
-6665
-5642
-1940
6040
-9357
4221
-6490
7179
-9075
-6689
8916
2705
-4017
-1837
6167
-2839
-9098
8797
-8071
-4978
-2088
4460
8835
-3926
4359
-161
-3179
-7298
-2167
3015
-7587
-1853
4091
-9113
-354
-2463
-2791
7345
5271
-5216
-9380
3699
-6764
7670
900
-6116
-8388
-4617
-594
-8633
-4157
-4549
-3013
-3135
-8750
6451
-197
-8958
-5788
-6919
-3750
484
-6124
7457
6646
-6639
-5679
142
-7782
6517
788
319
7047
9235
-1558
-7517
1871
-1089
6121
194
5176
-1591
9801
2985
-9355
-741
5574
-318
6569
7854
-8957
-138
-9040
-8758
7669
1480
7424
-8736
-6100
-7236
-2737
7832
-4209
-9008
4589
4843
8881
-1182
9035
-5549
9536
-2429
-1047
5955
-1947
7495
9129
-1768
9854
-3653
-2595
-8737
-243
6781
-6300
-6359
8940
-2239
-6901
-8161
-5633
357
9384
5204
671
-7965
-8880
-5768
1890
161
3149
-5901
-1299
-3385
1332
-5377
6371
6290
-9804
-6081
-8573
-3387
9958
-1845
-6505
-9381
-4203
-748
5991
-3283
7977
9510
179
377
3831
-6878
4251
-9685
8376
-890
-8379
-9817
5984
4429
8986
-2950
1873
-226
3028
7535
-100
3352
-6044
8868
-8312
9326
2492
-3894
-1431
-4604
-9360
-6221
1217
4745
-1965
-2140
996
-8509
5134
4333
8074
-5174
9476
6724
-4146
6423
9480
-1236
-7676
7994
-4013
9233
-793
8548
-2176
9292
769
4478
6391
-6122
3227
-9818
-4289
8390
6199
-6117
9477
-4703
2558
-375
715
9987
864
-1236
1401
6714
5989
-7868
2921
-3633
-8373
3110
-9312
-1243
8714
4393
-7979
-9770
3757
-9167
-8059
7964
-7020
-3475
9280
-5043
-9118
2104
190
-7019
-9119
7788
-76
4658
-7978
5008
9455
-4725
